<?xml version="1.0" standalone="no"?>
<!DOCTYPE svg PUBLIC "-//W3C//DTD SVG 1.1//EN" "http://www.w3.org/Graphics/SVG/1.1/DTD/svg11.dtd" >
<svg>
<metadata>
Created by FontForge 20110222 at Mon Mar  7 12:00:53 2011
 By www-data
Copyright (c) 2010 by studio kmzero. All rights reserved.
</metadata>
<defs>
<font id="bubbleboddylight-Light" horiz-adv-x="535" >
  <font-face 
    font-family="bubbleboddy light"
    font-weight="300"
    font-stretch="normal"
    units-per-em="1000"
    panose-1="2 0 5 6 0 0 0 2 0 4"
    ascent="800"
    descent="-200"
    x-height="483"
    cap-height="630"
    bbox="-87 -205.474 952 843"
    underline-thickness="50"
    underline-position="-50"
    unicode-range="U+0020-20AC"
  />
    <missing-glyph />
    <glyph glyph-name="h" unicode="h" horiz-adv-x="552" 
d="M484 241q0 42 -14 79.5t-39.5 65.5t-61 44t-77.5 16q-41 0 -79.5 -17t-68 -45.5t-47 -66t-17.5 -78.5v-218q0 -9 -5.5 -15t-14.5 -6t-14.5 6t-5.5 15v595q0 8 6 14t14 6t14 -6t6 -14v-261q7 19 25.5 41t46.5 41.5t63.5 32.5t76.5 13q50 0 92.5 -19t73.5 -51.5t48.5 -76.5
t17.5 -94v-221q0 -9 -5.5 -15t-14.5 -6t-14.5 6t-5.5 15v220z" />
    <glyph glyph-name="g" unicode="g" horiz-adv-x="547" 
d="M188 -160q4 8 12 10.5t16 -1.5q47 -15 92.5 -10t81 27t57 60.5t21.5 91.5v109q-9 -25 -29.5 -48t-49 -41t-62.5 -28.5t-71 -10.5q-50 0 -92.5 19t-73.5 52t-48.5 77t-17.5 94t17.5 94t48.5 77t73.5 52t92.5 19q41 0 76.5 -13t63.5 -32.5t46.5 -41.5t25.5 -41v55
q0 38 7 55t22 17q11 0 11 -11v-453q0 -59 -24 -107t-65.5 -77.5t-96.5 -37t-118 13.5q-9 3 -15.5 10t-0.5 20zM67 241q0 -42 13.5 -79.5t38.5 -65.5t60 -44t77 -16t80.5 16t67 44t45.5 65.5t17 79.5q0 41 -17.5 78.5t-46.5 65.5t-67 44.5t-79 16.5q-42 0 -77 -16t-60 -44
t-38.5 -65.5t-13.5 -79.5z" />
    <glyph glyph-name="i" unicode="i" horiz-adv-x="116" 
d="M59 484q8 0 14 -6t6 -14v-444q0 -8 -6 -14t-14 -6t-14 6t-6 14v444q0 8 6 14t14 6zM31 602q0 12 8 20.5t20 8.5t20.5 -8.5t8.5 -20.5t-8.5 -20t-20.5 -8t-20 8t-8 20z" />
    <glyph glyph-name="j" unicode="j" horiz-adv-x="122" 
d="M-84 -134q0 8 6 14t16 6q49 2 75 39.5t28 92.5v446q0 8 6 14t14 6t14 -6t6 -14v-446q-1 -74 -38.5 -122.5t-106.5 -49.5q-8 0 -14 6t-6 14zM33 602q0 12 8 20.5t20 8.5t20.5 -8.5t8.5 -20.5t-8.5 -20t-20.5 -8t-20 8t-8 20z" />
    <glyph glyph-name="k" unicode="k" horiz-adv-x="525" 
d="M80 185l383 304q7 5 15 4t13 -8q5 -6 4.5 -14.5t-7.5 -13.5l-174 -138l174 -289q10 -17 -7 -27q-7 -5 -15 -3t-12 9l-172 285l-202 -161v-113q0 -8 -6 -14t-14 -6t-14 6t-6 14v590q0 4 -1 7.5t0 6.5t5 4.5t14 1.5q11 0 16.5 -6t5.5 -14v-425z" />
    <glyph glyph-name="l" unicode="l" horiz-adv-x="119" 
d="M60 630q8 0 14 -6t6 -14v-590q0 -8 -6 -14t-14 -6t-14 6t-6 14v590q0 8 6 14t14 6z" />
    <glyph glyph-name="m" unicode="m" horiz-adv-x="779" 
d="M80 376q3 17 14.5 36t32 35t50.5 26t70 10q66 -1 102.5 -35t50.5 -89q5 19 17 40.5t33.5 40t52.5 31t73 12.5q49 0 81 -19t51 -51.5t26 -76.5t7 -94v-221q0 -9 -5.5 -15t-14.5 -6t-14.5 6t-5.5 15v220q0 42 -4.5 79.5t-18.5 65.5t-40 44t-68 16q-41 0 -70.5 -16.5
t-49 -44t-29 -64.5t-10.5 -79v-221q0 -9 -5.5 -15t-14.5 -6t-14.5 6t-5.5 15v220q0 42 -4.5 79.5t-18 65.5t-39 44t-67.5 16q-41 0 -71.5 -17t-50.5 -45.5t-30 -66t-10 -78.5v-218q0 -9 -5.5 -15t-14.5 -6t-14.5 6t-5.5 15v451q0 11 11 11q15 0 22 -17t7 -55v-35z" />
    <glyph glyph-name="n" unicode="n" horiz-adv-x="559" 
d="M80 355q7 19 26.5 41t48.5 41.5t65.5 32.5t77.5 13q50 0 91.5 -19t71.5 -51.5t46.5 -76.5t16.5 -94v-221q0 -9 -5.5 -15t-14.5 -6t-14.5 6t-5.5 15v220q0 42 -13 79.5t-37.5 65.5t-59 44t-76.5 16q-41 0 -80.5 -17t-70 -45.5t-49 -66t-18.5 -78.5v-218q0 -9 -5.5 -15
t-14.5 -6t-14.5 6t-5.5 15v451q0 11 11 11q15 0 22 -17t7 -55v-56z" />
    <glyph glyph-name="o" unicode="o" horiz-adv-x="540" 
d="M28 242q0 50 19 94t52 77t77 52t94 19t94 -19t77 -52t52 -77t19 -94t-19 -94t-52 -77t-77 -52t-94 -19t-94 19t-77 52t-52 77t-19 94zM70 242q0 -42 15.5 -79.5t42.5 -65.5t63.5 -44t78.5 -16t78.5 16t63.5 44t42.5 65.5t15.5 79.5t-15.5 79.5t-42.5 65.5t-63.5 44
t-78.5 16t-78.5 -16t-63.5 -44t-42.5 -65.5t-15.5 -79.5z" />
    <glyph glyph-name="p" unicode="p" horiz-adv-x="534" 
d="M80 356q9 25 29.5 48t49 41t62.5 28.5t71 10.5q50 0 92.5 -19t73.5 -52t48.5 -77t17.5 -94t-17.5 -94t-48.5 -77t-73.5 -52t-92.5 -19q-41 0 -76.5 13t-63.5 32.5t-46.5 41.5t-25.5 41v-259v-2q0 -8 -6 -14t-14 -6t-14 6t-6 14v605q0 11 11 11q15 0 22 -17t7 -55v-55z
M481 242q0 42 -13.5 79.5t-38.5 65.5t-60 44t-77 16t-80.5 -16t-67 -44t-45.5 -65.5t-17 -79.5q0 -41 17.5 -78.5t46.5 -65.5t67 -44.5t79 -16.5q42 0 77 16t60 44t38.5 65.5t13.5 79.5z" />
    <glyph glyph-name="q" unicode="q" 
d="M454 411q0 38 7 55t22 17q11 0 11 -11v-605q0 -8 -6 -14t-14 -6t-14 6t-6 14v2v259q-7 -19 -25.5 -41t-46.5 -41.5t-63.5 -32.5t-76.5 -13q-50 0 -92.5 19t-73.5 52t-48.5 77t-17.5 94t17.5 94t48.5 77t73.5 52t92.5 19q37 0 71 -10.5t62.5 -28.5t49 -41t29.5 -48v55z
M53 242q0 -42 13.5 -79.5t38.5 -65.5t60 -44t77 -16q41 0 79 16.5t67 44.5t46.5 65.5t17.5 78.5q0 42 -17 79.5t-45.5 65.5t-67 44t-80.5 16t-77 -16t-60 -44t-38.5 -65.5t-13.5 -79.5z" />
    <glyph glyph-name="r" unicode="r" horiz-adv-x="346" 
d="M80 358q4 16 20.5 38t42.5 41t60.5 32.5t74.5 13.5q14 0 27 -2.5t22 -5.5q19 -6 18 -24q-2 -9 -8.5 -14t-15.5 -4q-13 1 -23.5 6t-25.5 5q-39 0 -73.5 -16.5t-61 -44.5t-42 -65.5t-15.5 -78.5v-218q0 -9 -5.5 -15t-14.5 -6t-14.5 6t-5.5 15v451q0 11 11 11q15 0 22 -17
t7 -55v-53z" />
    <glyph glyph-name="s" unicode="s" horiz-adv-x="490" 
d="M241 0q-32 0 -70 9.5t-70.5 27t-54 43t-21.5 57.5q0 12 7 17t12 5q11 0 16.5 -6.5t5.5 -14.5q0 -15 13.5 -32t37 -31.5t55.5 -24.5t69 -10q67 -1 103 14t53 33t20 33.5t3 16.5q0 43 -47 66.5t-132 28.5q-65 3 -102 17t-56.5 33t-24.5 39t-5 37q0 22 10.5 44.5t33 40.5
t59 29.5t87.5 11.5q39 0 75.5 -9t64.5 -25.5t45.5 -39.5t17.5 -52q0 -8 -3 -12t-7 -5.5t-7.5 -2l-3.5 -0.5q-14 0 -17 9t-3 11q0 15 -12 30.5t-33.5 27.5t-50.5 20t-63 8q-48 0 -77.5 -10t-46 -24t-22.5 -28.5t-6 -23.5q0 -16 5.5 -30t21.5 -25t45 -19t75 -11
q41 -3 80.5 -10.5t70.5 -22.5t50 -40t19 -63q0 -37 -19 -63t-49.5 -42.5t-70 -24t-81.5 -7.5z" />
    <glyph glyph-name="t" unicode="t" horiz-adv-x="262" 
d="M130 617q8 0 14.5 -6.5t6.5 -14.5l-2 -134q6 0 19 0.5t27 1.5t26 1.5t16 0.5q22 0 22 -22q0 -8 -6 -14t-16 -6q-4 0 -16.5 0.5t-27 1t-27 1t-17.5 0.5l2 -406q0 -8 -6.5 -14.5t-14.5 -6.5t-14.5 6.5t-6.5 14.5l2 406l-87 -3q-8 0 -14 6t-6 14q0 10 6 16t14 6l87 -4
l-2 134q0 8 6.5 14.5t14.5 6.5z" />
    <glyph glyph-name="u" unicode="u" horiz-adv-x="559" 
d="M478 128q-7 -19 -26.5 -41t-48.5 -41.5t-65.5 -32.5t-77.5 -13q-50 0 -91.5 19t-71.5 51.5t-46.5 76.5t-16.5 94v221q0 9 5.5 15t14.5 6t14.5 -6t5.5 -15v-220q0 -42 13 -79.5t37.5 -65.5t59 -44t76.5 -16q41 0 80.5 17t70 45.5t49 66t18.5 78.5v218q0 9 5.5 15t14.5 6
t14.5 -6t5.5 -15v-451q0 -11 -11 -11q-15 0 -22 17t-7 55v56z" />
    <glyph glyph-name="w" unicode="w" horiz-adv-x="817" 
d="M37 483q2 1 5 1q6 0 12 -4t8 -10l169 -402l158 402q2 5 7.5 9.5t12.5 4.5q6 0 11.5 -4.5t7.5 -9.5l158 -402l169 402q2 6 8 10t12 4q3 0 5 -1q6 -3 9 -9t3 -12q0 -5 -1 -7l-182 -436q-2 -5 -8 -12t-15 -7t-14 5.5t-8 13.5l-156 396l-154 -396q-2 -5 -8 -12t-15 -7
t-14 5.5t-8 13.5l-183 436q-1 2 -1 7q0 6 3 12t9 9z" />
    <glyph glyph-name="v" unicode="v" horiz-adv-x="448" 
d="M30 483q8 2 15 -1.5t10 -11.5l169 -402l169 402q3 8 10 11.5t15 1.5q8 -4 11 -12t0 -16l-182 -436q-2 -5 -8 -12t-15 -7t-14 5.5t-8 13.5l-183 436q-3 8 0 16t11 12z" />
    <glyph glyph-name="x" unicode="x" horiz-adv-x="566" 
d="M525 33q5 -5 5 -13t-5 -13q-6 -6 -14.5 -6.5t-13.5 4.5l-214 212l-214 -212q-5 -5 -13.5 -4.5t-14.5 6.5q-5 5 -5 13t5 13l217 208l-216 208q-6 6 -6 15t6 15q5 5 13.5 4.5t14.5 -6.5l213 -212l213 212q6 6 14.5 6.5t13.5 -4.5q6 -6 6 -15t-6 -15l-217 -207z" />
    <glyph glyph-name="y" unicode="y" horiz-adv-x="538" 
d="M181 -160q4 8 12 10.5t16 -1.5q47 -15 92.5 -10t81 27t57 60.5t21.5 91.5v109q-9 -25 -29.5 -48t-49 -41t-62.5 -28.5t-71 -10.5q-50 0 -92.5 19t-73.5 52t-48.5 77t-17.5 94v220q0 22 21 22t21 -22v-220q0 -42 13.5 -79.5t38.5 -65.5t60 -44t77 -16t80.5 16t67.5 44
t46 65.5t17 79.5v4v24.5v65v126.5q0 22 21 22t21 -22v-417v-2v-24q0 -59 -23.5 -105.5t-64.5 -75t-96.5 -36.5t-119.5 9q-13 4 -16.5 13t0.5 17z" />
    <glyph glyph-name="z" unicode="z" horiz-adv-x="523" 
d="M35 463q0 8 5.5 14.5t13.5 6.5h415q8 0 13.5 -5.5t5.5 -13.5q0 -7 -7 -14l-401 -414l408 2q8 0 14 -6t6 -14t-6 -13.5t-14 -5.5h-452q-8 0 -13 5t-5 13t7 15l400 413l-371 -2q-8 0 -13.5 5.5t-5.5 13.5z" />
    <glyph glyph-name="c" unicode="c" horiz-adv-x="468" 
d="M401 395q-26 24 -60.5 37.5t-72.5 13.5q-42 0 -78.5 -16t-63.5 -44t-42.5 -65.5t-15.5 -79.5t15.5 -79.5t42.5 -65.5t63.5 -44t78.5 -16q37 0 73 13.5t62 39.5q6 6 15 6q7 0 15 -6q6 -8 6 -15q0 -9 -6 -15q-12 -10 -28.5 -20.5t-37 -19.5t-45.5 -14.5t-54 -5.5
q-50 0 -94 19t-77 52t-52 77t-19 94t19 94t52 77t77 52t94 19q42 0 87 -13.5t76 -44.5q6 -8 6 -15q0 -9 -6 -15q-8 -6 -15 -6q-9 0 -15 6z" />
    <glyph glyph-name="a" unicode="a" horiz-adv-x="553" 
d="M472 127q-9 -24 -29.5 -47t-48.5 -41t-62.5 -29t-71.5 -11q-50 0 -92.5 19t-73.5 52t-48.5 77t-17.5 94t17.5 94t48.5 77t73.5 52t92.5 19q41 0 76.5 -13t63.5 -32.5t46.5 -41.5t25.5 -41v55q0 38 7 55t22 17q11 0 11 -11v-460q0 -11 -11 -11q-15 0 -22 17t-7 55v55z
M71 241q0 -42 13.5 -79.5t38.5 -65.5t60 -44t77 -16t80.5 16t67 44t45.5 65.5t17 79.5q0 41 -17.5 78.5t-46.5 65.5t-67 44.5t-79 16.5q-42 0 -77 -16t-60 -44t-38.5 -65.5t-13.5 -79.5z" />
    <glyph glyph-name="d" unicode="d" 
d="M454 127q-9 -25 -29.5 -48t-49 -41t-62.5 -28.5t-71 -10.5q-50 0 -92.5 19t-73.5 52t-48.5 77t-17.5 94t17.5 94t48.5 77t73.5 52t92.5 19q41 0 76.5 -13t63.5 -32.5t46.5 -41.5t25.5 -41v259v2q0 8 6 14t14 6t14 -6t6 -14v-605q0 -11 -11 -11q-15 0 -22 17t-7 55v55z
M53 241q0 -42 13.5 -79.5t38.5 -65.5t60 -44t77 -16t80.5 16t67 44t45.5 65.5t17 79.5q0 41 -17.5 78.5t-46.5 65.5t-67 44.5t-79 16.5q-42 0 -77 -16t-60 -44t-38.5 -65.5t-13.5 -79.5z" />
    <glyph glyph-name="exclam" unicode="!" horiz-adv-x="118" 
d="M58 147q-8 0 -14 6t-6 14v444q0 8 6 14t14 6t14 -6t6 -14v-444q0 -8 -6 -14t-14 -6zM86 29q0 -12 -8 -20.5t-20 -8.5t-20.5 8.5t-8.5 20.5t8.5 20t20.5 8t20 -8t8 -20z" />
    <glyph glyph-name="quotedbl" unicode="&#x22;" horiz-adv-x="193" 
d="M56 637q8 0 14 -6t6 -14v-98q0 -8 -6 -14t-14 -6t-14 6t-6 14v98q0 8 6 14t14 6zM136 637q8 0 14 -6t6 -14v-98q0 -8 -6 -14t-14 -6t-14 6t-6 14v98q0 8 6 14t14 6z" />
    <glyph glyph-name="percent" unicode="%" horiz-adv-x="577" 
d="M22 500q0 28 10.5 53t29 44t43 29.5t53.5 10.5q28 0 53 -10.5t44 -29.5t29.5 -44t10.5 -53q0 -29 -10.5 -53.5t-29.5 -43t-44 -29t-53 -10.5q-29 0 -53.5 10.5t-43 29t-29 43t-10.5 53.5zM414 635q8 -3 11 -10.5t1 -15.5l-238 -597q-3 -8 -10.5 -10.5t-15.5 0.5
t-10.5 10.5t-0.5 15.5l237 596q3 8 10.5 11t15.5 0zM62 500q0 -41 27.5 -68.5t68.5 -27.5t69 27.5t28 68.5t-28 69t-69 28t-68.5 -28t-27.5 -69zM282 136q0 28 10.5 53t29 44t43 29.5t53.5 10.5q28 0 53 -10.5t44 -29.5t29.5 -44t10.5 -53q0 -29 -10.5 -53.5t-29.5 -43
t-44 -29t-53 -10.5q-29 0 -53.5 10.5t-43 29t-29 43t-10.5 53.5zM322 136q0 -41 27.5 -68.5t68.5 -27.5t69 27.5t28 68.5t-28 69t-69 28t-68.5 -28t-27.5 -69z" />
    <glyph glyph-name="ampersand" unicode="&#x26;" horiz-adv-x="427" 
d="M301 370v136q0 8 6 14t14 6t14 -6t6 -14v-136h53q8 0 13.5 -6t5.5 -14q0 -19 -19 -19h-53v-311q0 -8 -6 -14t-14 -6h-109q-39 0 -72.5 14.5t-59 39.5t-40 58.5t-14.5 72.5q0 56 29.5 101t77.5 67q-32 20 -51.5 53.5t-19.5 74.5q0 31 12 58.5t32 47.5t47.5 32t58.5 12h19
q8 0 14 -6t6 -14t-6 -14t-14 -6h-19q-23 0 -43 -8.5t-35 -23.5t-23.5 -35t-8.5 -43t8.5 -43t23.5 -35t35 -24t43 -9h89zM301 39v292h-89q-30 0 -57 -11.5t-46.5 -31.5t-31 -46.5t-11.5 -56.5t11.5 -56.5t31 -46.5t46.5 -31.5t57 -11.5h89z" />
    <glyph glyph-name="quotesingle" unicode="'" horiz-adv-x="122" 
d="M58 638q8 0 14 -6t6 -14v-98q0 -8 -6 -14t-14 -6t-14 6t-6 14v98q0 8 6 14t14 6z" />
    <glyph glyph-name="parenleft" unicode="(" horiz-adv-x="251" 
d="M245 -132q0 -8 -6 -14t-14 -6q-40 0 -75 15t-61.5 41.5t-42 61.5t-15.5 75v397q0 40 15.5 75t41.5 61t61.5 41.5t75.5 15.5q8 0 14 -6t6 -14t-6 -14t-16 -6q-32 0 -59.5 -12.5t-48 -33.5t-32.5 -48.5t-12 -58.5v-397q0 -31 12 -58.5t33 -48.5t49 -33.5t60 -12.5
q8 0 14 -6t6 -14z" />
    <glyph glyph-name="parenright" unicode=")" horiz-adv-x="251" 
d="M6 -132q0 8 6 14t14 6q32 0 60 12.5t49 33.5t33 48.5t12 58.5v397q0 31 -12 58.5t-32.5 48.5t-48.5 33.5t-59 12.5q-10 0 -16 6t-6 14t6 14t14 6q40 0 75.5 -15.5t61.5 -41.5t41.5 -61t15.5 -75v-397q0 -40 -15.5 -75t-42 -61.5t-61.5 -41.5t-75 -15q-8 0 -14 6t-6 14z
" />
    <glyph glyph-name="asterisk" unicode="*" horiz-adv-x="403" 
d="M202 631q8 0 14 -6t6 -14v-149l131 84q7 5 14.5 3.5t12.5 -9.5q5 -7 3.5 -15t-9.5 -12l-136 -87l143 -91q7 -4 9 -11.5t-3 -15.5t-13 -9.5t-15 3.5l-137 88v-157q0 -8 -6 -14t-14 -6t-14 6t-6 14v156l-138 -88q-7 -5 -15 -3.5t-13 9.5t-3 15.5t9 11.5l144 92l-137 88
q-8 4 -9.5 12t3.5 15q5 8 12.5 9.5t14.5 -3.5l132 -85v149q0 8 6 14t14 6z" />
    <glyph glyph-name="bracketleft" unicode="[" horiz-adv-x="162" 
d="M159 -127q0 -8 -6 -14t-14 -6h-79q-8 0 -14 6t-6 14v738q0 8 6 14t14 6h79q8 0 14 -6t6 -14t-6 -14t-14 -6l-59 2v-702l59 2q8 0 14 -6t6 -14z" />
    <glyph glyph-name="bracketright" unicode="]" horiz-adv-x="164" 
d="M3 -127q0 8 6 14t14 6l59 -2v702l-59 -2q-8 0 -14 6t-6 14t6 14t14 6h79q8 0 14 -6t6 -14v-738q0 -8 -6 -14t-14 -6h-79q-8 0 -14 6t-6 14z" />
    <glyph glyph-name="plus" unicode="+" horiz-adv-x="384" 
d="M192 117q-8 0 -14 6t-6 14l2 151l-151 -2q-8 0 -14 6t-6 14t6 14t14 6l151 -2l-2 151q0 8 6 14t14 6t14 -6t6 -14l-2 -151l151 2q8 0 14 -6t6 -14t-6 -14t-14 -6l-151 2l2 -151q0 -8 -6 -14t-14 -6z" />
    <glyph glyph-name="comma" unicode="," horiz-adv-x="103" 
d="M70 39q15 -7 16.5 -19t-3.5 -20q-14 -23 -22.5 -36t-15 -18.5t-11 -5.5t-8.5 2q-5 2 -8 6.5t-3 13.5t3.5 24.5t13.5 40.5q4 8 14.5 13.5t23.5 -1.5z" />
    <glyph glyph-name="hyphen" unicode="-" horiz-adv-x="456" 
d="M417 301q0 -8 -6 -14t-14 -6h-338q-8 0 -14 6t-6 14t6 14t14 6h338q8 0 14 -6t6 -14z" />
    <glyph glyph-name="period" unicode="." horiz-adv-x="98" 
d="M20 28q0 12 8 20.5t20 8.5t20.5 -8.5t8.5 -20.5t-8.5 -20t-20.5 -8t-20 8t-8 20z" />
    <glyph glyph-name="slash" unicode="/" horiz-adv-x="287" 
d="M269 635q8 -3 11 -10.5t1 -15.5l-238 -597q-3 -8 -10.5 -10.5t-15.5 0.5t-10.5 10.5t-0.5 15.5l237 596q3 8 10.5 11t15.5 0z" />
    <glyph glyph-name="braceleft" unicode="{" horiz-adv-x="182" 
d="M94 287q-1 -24 -17 -41q8 -8 12.5 -19t4.5 -23v-307l59 2q8 0 14 -6t6 -14t-6 -14t-14 -6h-79q-8 0 -14 6t-6 14v325q0 8 -5.5 14t-13.5 8h-3q-8 0 -14 6t-6 14t6 14t14 6h3q8 1 13.5 7.5t5.5 14.5v329q0 8 6 14t14 6h79q8 0 14 -6t6 -14t-6 -14t-14 -6l-59 2v-312z" />
    <glyph glyph-name="one" unicode="1" horiz-adv-x="143" 
d="M94 479q4 -3 5 -7.5t1 -7.5v-444q0 -8 -6 -14t-14 -6t-14 6t-6 14v400l-22 -28q-5 -6 -13.5 -6.5t-14.5 5.5t-6 14t5 14l56 59q5 5 13 6t16 -5z" />
    <glyph glyph-name="two" unicode="2" horiz-adv-x="478" 
d="M460 20q0 -8 -6 -14t-14 -6h-370q-19 0 -29.5 11t-0.5 28q18 32 44.5 61t57 54.5t64 47.5t65.5 39q41 22 67 37.5t41 28t20.5 24.5t5.5 28q0 9 -6 23.5t-22.5 28.5t-46 24t-77.5 10q-34 0 -63 -8t-50.5 -20t-33.5 -27.5t-12 -30.5q0 -2 -3 -11t-17 -9l-3.5 0.5t-7.5 2
t-7 5.5t-3 12q0 29 17.5 52t45.5 39.5t64.5 25.5t75.5 9q51 0 87.5 -11.5t59.5 -29.5t33 -40.5t10 -44.5q-1 -31 -15.5 -52t-38 -38.5t-54.5 -33.5t-65 -36q-63 -38 -108.5 -76t-80.5 -83h356q8 0 14 -6t6 -14z" />
    <glyph glyph-name="three" unicode="3" horiz-adv-x="432" 
d="M398 475q5 -7 3.5 -15t-8.5 -13l-214 -150q47 0 87.5 -16.5t70.5 -46t47.5 -69.5t17.5 -87q0 -50 -16 -91t-45 -70t-70 -45t-91 -16q-48 0 -86.5 13t-67.5 36q-8 6 -10.5 15t5.5 17q5 6 13.5 6t14.5 -6q47 -44 131 -44q85 0 134.5 50t49.5 135q0 42 -14.5 76.5t-40 58.5
t-61.5 37t-78 13h-34q-11 -2 -18 8q-5 7 -3.5 15t8.5 13l200 145h-290q-8 0 -14 6t-6 14t6 14t14 6h348q11 0 17 -9z" />
    <glyph glyph-name="four" unicode="4" horiz-adv-x="442" 
d="M179 481q10 -4 11.5 -10t-0.5 -14l-130 -417h242l-3 112q0 8 6 14t14 6t14 -6t6 -14l-3 -112h73q8 0 14 -6t6 -14t-6 -14t-14 -6h-73l3 -117q0 -8 -6 -14t-14 -6t-14 6t-6 14l3 117h-272q-10 0 -16.5 8.5t-2.5 19.5l142 441q3 9 10.5 12t15.5 0z" />
    <glyph glyph-name="five" unicode="5" horiz-adv-x="441" 
d="M48 -96q-8 6 -10.5 15t5.5 17q5 6 13.5 6t14.5 -6q47 -44 131 -44q85 0 134.5 50t49.5 135q0 42 -14.5 76.5t-40 58.5t-61.5 37t-78 13h-142q-8 0 -14 6t-6 14v180q0 8 5.5 14t14.5 6h312q8 0 14 -6t6 -14t-6 -14t-14 -6h-292v-142h122q50 0 92.5 -16t73.5 -45.5
t48.5 -70.5t17.5 -91t-16 -91t-45 -70t-70 -45t-91 -16q-48 0 -86.5 13t-67.5 36z" />
    <glyph glyph-name="six" unicode="6" horiz-adv-x="523" 
d="M205 629q8 -4 10.5 -11.5t-0.5 -15.5l-73 -152q27 16 58 25t66 9q50 0 94 -19t77 -52t52 -77t19 -94t-19 -94t-52 -77t-77 -52t-94 -19t-94 19t-77 52t-52 77t-19 94q0 32 9 62t21 56l125 259q3 8 10.5 11t15.5 -1zM66 242q0 -42 15.5 -79.5t42.5 -65.5t63.5 -44
t78.5 -16t78.5 16t63.5 44t42.5 65.5t15.5 79.5t-15.5 79.5t-42.5 65.5t-63.5 44t-78.5 16t-78.5 -16t-63.5 -44t-42.5 -65.5t-15.5 -79.5z" />
    <glyph glyph-name="eight" unicode="8" horiz-adv-x="498" 
d="M138 525q0 23 8.5 43.5t23.5 35.5t35.5 24t43.5 9t43.5 -9t35.5 -24t24 -35.5t9 -43.5q0 -26 -10.5 -47.5t-27.5 -36.5q33 -12 61.5 -33t48.5 -48.5t31.5 -61.5t11.5 -71q0 -47 -18 -88.5t-48.5 -72t-72 -48.5t-88.5 -18t-88.5 18t-72 48.5t-48.5 72t-18 88.5
q0 37 11.5 71t31.5 62t48.5 49t61.5 32q-17 15 -27 36.5t-10 47.5zM62 227q0 -39 14.5 -73t40 -59.5t59.5 -40t73 -14.5t73 14.5t59.5 40t40 59.5t14.5 73q0 38 -14.5 71.5t-39.5 59t-59.5 40.5t-73.5 16q-39 0 -73 -14.5t-59.5 -40t-40 -59.5t-14.5 -73zM178 525
q0 -29 19.5 -49.5t51.5 -21.5q30 -1 51 20t21 51t-21 51t-51 21t-50.5 -21t-20.5 -51z" />
    <glyph glyph-name="nine" unicode="9" horiz-adv-x="523" 
d="M318 -145q-8 4 -10.5 11.5t0.5 15.5l73 152q-27 -16 -58 -25t-66 -9q-50 0 -94 19t-77 52t-52 77t-19 94t19 94t52 77t77 52t94 19t94 -19t77 -52t52 -77t19 -94q0 -32 -9 -62t-21 -56l-125 -259q-3 -8 -10.5 -11t-15.5 1zM457 242q0 42 -15.5 79.5t-42.5 65.5t-63.5 44
t-78.5 16t-78.5 -16t-63.5 -44t-42.5 -65.5t-15.5 -79.5t15.5 -79.5t42.5 -65.5t63.5 -44t78.5 -16t78.5 16t63.5 44t42.5 65.5t15.5 79.5z" />
    <glyph glyph-name="seven" unicode="7" horiz-adv-x="483" 
d="M57 -142q-7 5 -9 12.5t2 15.5l357 560l-353 -2q-8 0 -14 6t-6 14t6 14t14 6h382q8 0 14 -4t6 -13q0 -8 -6 -17l-366 -585q-4 -8 -12 -10t-15 3z" />
    <glyph glyph-name="zero" unicode="0" horiz-adv-x="540" 
d="M28 242q0 50 19 94t52 77t77 52t94 19t94 -19t77 -52t52 -77t19 -94t-19 -94t-52 -77t-77 -52t-94 -19t-94 19t-77 52t-52 77t-19 94zM70 242q0 -42 15.5 -79.5t42.5 -65.5t63.5 -44t78.5 -16t78.5 16t63.5 44t42.5 65.5t15.5 79.5t-15.5 79.5t-42.5 65.5t-63.5 44
t-78.5 16t-78.5 -16t-63.5 -44t-42.5 -65.5t-15.5 -79.5z" />
    <glyph glyph-name="backslash" unicode="\" horiz-adv-x="302" 
d="M18 637q8 3 15.5 0.5t10.5 -10.5l251 -599q3 -8 0 -15.5t-11 -10.5t-15.5 0t-10.5 11l-251 598q-3 8 0 15.5t11 10.5z" />
    <glyph glyph-name="bar" unicode="|" horiz-adv-x="120" 
d="M60 637q8 0 14 -6t6 -14v-730q0 -8 -6 -14t-14 -6t-14 6t-6 14v730q0 8 6 14t14 6z" />
    <glyph glyph-name="braceright" unicode="}" horiz-adv-x="182" 
d="M88 599l-59 -2q-8 0 -14 6t-6 14t6 14t14 6h79q8 0 14 -6t6 -14v-329q0 -8 5.5 -14.5t13.5 -7.5h3q8 0 14 -6t6 -14t-6 -14t-14 -6h-3q-8 -2 -13.5 -8t-5.5 -14v-325q0 -8 -6 -14t-14 -6h-79q-8 0 -14 6t-6 14t6 14t14 6l59 -2v307q0 12 4.5 23t12.5 19q-16 17 -17 41
v312z" />
    <glyph glyph-name="colon" unicode=":" horiz-adv-x="117" 
d="M30 454q0 12 8 20.5t20 8.5t20.5 -8.5t8.5 -20.5t-8.5 -20t-20.5 -8t-20 8t-8 20zM30 28q0 12 8 20.5t20 8.5t20.5 -8.5t8.5 -20.5t-8.5 -20t-20.5 -8t-20 8t-8 20z" />
    <glyph glyph-name="semicolon" unicode=";" horiz-adv-x="129" 
d="M35 454q0 12 8 20.5t20 8.5t20.5 -8.5t8.5 -20.5t-8.5 -20t-20.5 -8t-20 8t-8 20zM76 39q15 -7 16.5 -19t-3.5 -20q-14 -23 -22.5 -36t-15 -18.5t-11 -5.5t-8.5 2q-5 2 -8 6.5t-3 13.5t3.5 24.5t13.5 40.5q4 8 14.5 13.5t23.5 -1.5z" />
    <glyph glyph-name="quoteleft" unicode="&#x2018;" horiz-adv-x="91" 
d="M25 532q-15 7 -16.5 19t3.5 20q13 23 22 36t15.5 18.5t10.5 5.5t9 -2q4 -2 7.5 -6.5t3.5 -13.5t-3.5 -24.5t-13.5 -40.5q-4 -8 -14.5 -13.5t-23.5 1.5z" />
    <glyph glyph-name="quoteright" unicode="&#x2019;" horiz-adv-x="91" 
d="M69 628q15 -7 16.5 -19t-3.5 -20q-14 -23 -22.5 -36t-15 -18.5t-11 -5.5t-8.5 2q-5 2 -8 6.5t-3 13.5t3.5 24.5t13.5 40.5q4 8 14.5 13.5t23.5 -1.5z" />
    <glyph glyph-name="quotedblleft" unicode="&#x201c;" horiz-adv-x="198" 
d="M40 532q-15 7 -16.5 19t3.5 20q13 23 22 36t15.5 18.5t10.5 5.5t9 -2q4 -2 7.5 -6.5t3.5 -13.5t-3.5 -24.5t-13.5 -40.5q-4 -8 -14.5 -13.5t-23.5 1.5zM120 532q-15 7 -16.5 19t3.5 20q13 23 22 36t15.5 18.5t10.5 5.5t9 -2q4 -2 7.5 -6.5t3.5 -13.5t-3.5 -24.5
t-13.5 -40.5q-4 -8 -14.5 -13.5t-23.5 1.5z" />
    <glyph glyph-name="quotedblright" unicode="&#x201d;" horiz-adv-x="197" 
d="M164 628q15 -7 16.5 -19t-3.5 -20q-14 -23 -22.5 -36t-15 -18.5t-11 -5.5t-8.5 2q-5 2 -8 6.5t-3 13.5t3.5 24.5t13.5 40.5q4 8 14.5 13.5t23.5 -1.5zM84 628q15 -7 16.5 -19t-3.5 -20q-14 -23 -22.5 -36t-15 -18.5t-11 -5.5t-8.5 2q-5 2 -8 6.5t-3 13.5t3.5 24.5
t13.5 40.5q4 8 14.5 13.5t23.5 -1.5z" />
    <glyph glyph-name="quotesinglbase" unicode="&#x201a;" horiz-adv-x="126" 
d="M76 39q15 -7 16.5 -19t-3.5 -20q-14 -23 -22.5 -36t-15 -18.5t-11 -5.5t-8.5 2q-5 2 -8 6.5t-3 13.5t3.5 24.5t13.5 40.5q4 8 14.5 13.5t23.5 -1.5z" />
    <glyph glyph-name="quotedblbase" unicode="&#x201e;" horiz-adv-x="189" 
d="M76 39q15 -7 16.5 -19t-3.5 -20q-14 -23 -22.5 -36t-15 -18.5t-11 -5.5t-8.5 2q-5 2 -8 6.5t-3 13.5t3.5 24.5t13.5 40.5q4 8 14.5 13.5t23.5 -1.5zM156 39q15 -7 16.5 -19t-3.5 -20q-14 -23 -22.5 -36t-15 -18.5t-11 -5.5t-8.5 2q-5 2 -8 6.5t-3 13.5t3.5 24.5
t13.5 40.5q4 8 14.5 13.5t23.5 -1.5z" />
    <glyph glyph-name="grave" unicode="`" horiz-adv-x="112" 
d="M17 622q10 11 22 9.5t18 -7.5q18 -20 27 -33t12 -21.5t1.5 -13.5t-4.5 -9q-3 -3 -7.5 -4.5t-12 1.5t-20.5 11.5t-34 25.5q-7 6 -10 17.5t8 23.5z" />
    <glyph glyph-name="acute" unicode="&#xb4;" horiz-adv-x="112" 
d="M93 622q11 -12 8 -23.5t-10 -17.5q-21 -17 -34 -25.5t-20.5 -11.5t-12 -1.5t-7.5 4.5q-3 4 -4.5 9t1.5 13.5t12 21.5t27 33q6 6 18 7.5t22 -9.5z" />
    <glyph glyph-name="question" unicode="?" horiz-adv-x="485" 
d="M249 231q11 0 24.5 3t26.5 7.5t25 10.5t21 12q34 24 52.5 54.5t24.5 62t1.5 60.5t-16.5 50q-21 38 -50 62t-62 33.5t-69 5t-70 -23.5q-32 -18 -56.5 -42.5t-35.5 -56.5q-7 -19 -22 -16q-10 2 -13.5 9.5t-1.5 15.5q11 39 42.5 70.5t68.5 51.5q45 24 88.5 29t82.5 -6.5
t71.5 -38t56.5 -65.5q15 -25 22 -62.5t0.5 -78.5t-29 -80t-66.5 -67q-20 -13 -48.5 -22t-47.5 -12v-31q0 -8 -6 -13.5t-14 -5.5t-14 5.5t-6 13.5v47q0 8 6 13t14 5zM222 28q0 12 8 20.5t20 8.5t20.5 -8.5t8.5 -20.5t-8.5 -20t-20.5 -8t-20 8t-8 20z" />
    <glyph glyph-name="B" unicode="B" horiz-adv-x="514" 
d="M56 0q-8 0 -14 6t-6 14v591q0 4 -1 7.5t0 6.5t5 4.5t14 1.5h4h239h1q31 0 58.5 -12t47.5 -32t32 -47.5t12 -58.5q0 -41 -19.5 -74.5t-51.5 -53.5q48 -22 77.5 -67t29.5 -101q0 -39 -14.5 -72.5t-40 -58.5t-59 -39.5t-72.5 -14.5h-242zM76 330v-291h221h1q30 0 57 11.5
t46.5 31.5t31 46.5t11.5 56.5t-11.5 56.5t-31 46t-46.5 31t-57 11.5h-222zM76 591v-220h222q23 0 43 8.5t35 23.5t23.5 35t8.5 43t-8.5 43t-23.5 35t-35 23.5t-43 8.5h-222z" />
    <glyph glyph-name="equal" unicode="=" horiz-adv-x="456" 
d="M417 226q0 -8 -6 -14t-14 -6h-338q-8 0 -14 6t-6 14t6 14t14 6h338q8 0 14 -6t6 -14zM417 346q0 -8 -6 -14t-14 -6h-338q-8 0 -14 6t-6 14t6 14t14 6h338q8 0 14 -6t6 -14z" />
    <glyph glyph-name="less" unicode="&#x3c;" horiz-adv-x="291" 
d="M246 89q-6 -5 -14.5 -5t-14.5 5l-179 179q-5 5 -7.5 8t-2.5 9q0 8 3 11.5t7 7.5l188 189q6 5 14.5 5t14.5 -5q5 -6 5 -14.5t-5 -14.5l-189 -178l180 -168q5 -6 5 -14.5t-5 -14.5z" />
    <glyph glyph-name="greater" unicode="&#x3e;" horiz-adv-x="289" 
d="M46 89q-5 6 -5 14.5t5 14.5l180 168l-189 178q-5 6 -5 14.5t5 14.5q6 5 14.5 5t14.5 -5l188 -189q4 -4 7 -7.5t3 -11.5q0 -6 -2.5 -9t-7.5 -8l-179 -179q-6 -5 -14.5 -5t-14.5 5z" />
    <glyph glyph-name="tilde" unicode="&#x2dc;" horiz-adv-x="430" 
d="M358 823q0 8 6 14t14 6t14 -6t6 -14q0 -23 -9 -46t-24 -42t-35 -30.5t-43 -11.5q-17 0 -29 5.5t-21 13.5t-15.5 18t-12.5 19q-6 8 -12 18t-15 18.5t-20.5 14.5t-27.5 6q-15 0 -26 -9t-18.5 -23t-11.5 -30.5t-4 -31.5q0 -8 -6 -14t-14 -6t-14 6t-6 14q0 23 7 46.5t20 42
t31.5 30.5t41.5 12q21 0 36.5 -5.5t26.5 -14.5t18.5 -20t14.5 -21q4 -7 9 -15.5t12 -16.5t15.5 -13.5t20.5 -5.5q16 0 29 8.5t22 22t14.5 30t5.5 31.5z" />
    <glyph glyph-name="exclamdown" unicode="&#xa1;" horiz-adv-x="102" 
d="M50 359.027q-8 0 -14 -5.99902t-6 -13.998v-443.918q0 -7.99902 6 -13.998t14 -5.99902t14 5.99902t6 13.998v443.918q0 7.99902 -6 13.998t-14 5.99902zM78 477.005q0 11.998 -8 20.4971q-8 8.49805 -20 8.49805t-20.5 -8.49805q-8.5 -8.49902 -8.5 -20.4971
q0 -11.9971 8.5 -19.9961q8.5 -7.99805 20.5 -7.99805t20 7.99805q8 7.99902 8 19.9961z" />
    <glyph glyph-name="questiondown" unicode="&#xbf;" horiz-adv-x="504" 
d="M223.046 254.042q-10.998 0 -24.4961 -2.99902q-13.4971 -3 -26.4951 -7.49902q-12.9971 -4.49902 -24.9951 -10.498t-20.9961 -11.9971q-33.9941 -23.9961 -52.4902 -54.4902q-18.4971 -30.4951 -24.4961 -61.9893t-1.49902 -60.4883q4.49902 -28.9951 16.4961 -49.9912
q20.9971 -37.9932 49.9912 -61.9883q28.9951 -23.9961 61.9893 -33.4941q32.9932 -9.49805 68.9873 -4.99902q35.9932 4.49902 69.9863 23.4951q31.9941 17.9971 56.4902 42.4922q24.4951 24.4961 35.4932 56.4902q6.99902 18.9961 21.9961 15.9971
q9.99805 -2 13.498 -9.49805q3.49902 -7.49902 1.49902 -15.4971q-10.998 -38.9932 -42.4922 -70.4873t-68.4873 -51.4912q-44.9922 -23.9951 -88.4834 -28.9941q-43.4922 -4.99902 -82.4854 6.49902t-71.4863 37.9932q-32.4941 26.4951 -56.4902 65.4873
q-14.9971 24.9961 -21.9961 62.4893q-6.99805 37.4932 -0.5 78.4854q6.49902 40.9922 28.9951 79.9854t66.4873 66.9873q19.9971 12.998 48.4912 21.9961q28.4951 8.99902 47.4912 11.998v30.9941q0 7.99902 5.99902 13.498t13.998 5.49902q7.99805 0 13.9971 -5.49902
t5.99902 -13.498v-46.9912q0 -7.99902 -5.99902 -12.998t-13.9971 -4.99902zM250.041 457.005q0 -11.9971 -7.99902 -20.4961q-7.99805 -8.49805 -19.9961 -8.49805t-20.4961 8.49805q-8.49902 8.49902 -8.49902 20.4961q0 11.998 8.49902 19.9971
q8.49805 7.99805 20.4961 7.99805t19.9961 -7.99805q7.99902 -7.99902 7.99902 -19.9971z" />
    <glyph glyph-name="dieresis" unicode="&#xa8;" horiz-adv-x="261" 
d="M32 665q0 12 8 20.5t20 8.5t20.5 -8.5t8.5 -20.5t-8.5 -20t-20.5 -8t-20 8t-8 20zM172 665q0 12 8 20.5t20 8.5t20.5 -8.5t8.5 -20.5t-8.5 -20t-20.5 -8t-20 8t-8 20z" />
    <glyph glyph-name="egrave" unicode="&#xe8;" horiz-adv-x="525" 
d="M266 0q-50 0 -94 19t-77 51.5t-52 76.5t-19 94q0 56 20 101t54.5 76.5t80 48.5t95.5 17t93 -18.5t74.5 -51t49.5 -76.5t18 -95q0 -8 -6 -14t-17 -6h-420q3 -39 20 -73t43.5 -59t61.5 -39.5t75 -14.5q37 0 73 13.5t62 39.5q6 6 15 6t15 -6q5 -6 6 -14.5t-6 -15.5
q-12 -10 -28.5 -20.5t-37 -19.5t-45.5 -14.5t-54 -5.5zM274 447q-40 0 -76 -14.5t-64 -39.5t-45.5 -59t-21.5 -73h401q-3 39 -18.5 73t-41 59t-60 39.5t-74.5 14.5zM204 605q10 11 22 9.5t18 -7.5q18 -20 27 -33t12 -21.5t1.5 -13.5t-4.5 -9q-3 -3 -7.5 -4.5t-12 1.5
t-20.5 11.5t-34 25.5q-7 6 -10 17.5t8 23.5z" />
    <glyph glyph-name="eacute" unicode="&#xe9;" horiz-adv-x="525" 
d="M266 0q-50 0 -94 19t-77 51.5t-52 76.5t-19 94q0 56 20 101t54.5 76.5t80 48.5t95.5 17t93 -18.5t74.5 -51t49.5 -76.5t18 -95q0 -8 -6 -14t-17 -6h-420q3 -39 20 -73t43.5 -59t61.5 -39.5t75 -14.5q37 0 73 13.5t62 39.5q6 6 15 6t15 -6q5 -6 6 -14.5t-6 -15.5
q-12 -10 -28.5 -20.5t-37 -19.5t-45.5 -14.5t-54 -5.5zM274 447q-40 0 -76 -14.5t-64 -39.5t-45.5 -59t-21.5 -73h401q-3 39 -18.5 73t-41 59t-60 39.5t-74.5 14.5zM347 605q11 -12 8 -23.5t-10 -17.5q-21 -17 -34 -25.5t-20.5 -11.5t-12 -1.5t-7.5 4.5q-3 4 -4.5 9
t1.5 13.5t12 21.5t27 33q6 6 18 7.5t22 -9.5z" />
    <glyph glyph-name="edieresis" unicode="&#xeb;" horiz-adv-x="525" 
d="M266 0q-50 0 -94 19t-77 51.5t-52 76.5t-19 94q0 56 20 101t54.5 76.5t80 48.5t95.5 17t93 -18.5t74.5 -51t49.5 -76.5t18 -95q0 -8 -6 -14t-17 -6h-420q3 -39 20 -73t43.5 -59t61.5 -39.5t75 -14.5q37 0 73 13.5t62 39.5q6 6 15 6t15 -6q5 -6 6 -14.5t-6 -15.5
q-12 -10 -28.5 -20.5t-37 -19.5t-45.5 -14.5t-54 -5.5zM274 447q-40 0 -76 -14.5t-64 -39.5t-45.5 -59t-21.5 -73h401q-3 39 -18.5 73t-41 59t-60 39.5t-74.5 14.5zM167 596q0 12 8 20.5t20 8.5t20.5 -8.5t8.5 -20.5t-8.5 -20t-20.5 -8t-20 8t-8 20zM307 596q0 12 8 20.5
t20 8.5t20.5 -8.5t8.5 -20.5t-8.5 -20t-20.5 -8t-20 8t-8 20z" />
    <glyph glyph-name="ograve" unicode="&#xf2;" horiz-adv-x="524" 
d="M21 242q0 50 19 94t52 77t77 52t94 19t94 -19t77 -52t52 -77t19 -94t-19 -94t-52 -77t-77 -52t-94 -19t-94 19t-77 52t-52 77t-19 94zM63 242q0 -42 15.5 -79.5t42.5 -65.5t63.5 -44t78.5 -16t78.5 16t63.5 44t42.5 65.5t15.5 79.5t-15.5 79.5t-42.5 65.5t-63.5 44
t-78.5 16t-78.5 -16t-63.5 -44t-42.5 -65.5t-15.5 -79.5zM192 604q10 11 22 9.5t18 -7.5q18 -20 27 -33t12 -21.5t1.5 -13.5t-4.5 -9q-3 -3 -7.5 -4.5t-12 1.5t-20.5 11.5t-34 25.5q-7 6 -10 17.5t8 23.5z" />
    <glyph glyph-name="oacute" unicode="&#xf3;" horiz-adv-x="524" 
d="M21 242q0 50 19 94t52 77t77 52t94 19t94 -19t77 -52t52 -77t19 -94t-19 -94t-52 -77t-77 -52t-94 -19t-94 19t-77 52t-52 77t-19 94zM63 242q0 -42 15.5 -79.5t42.5 -65.5t63.5 -44t78.5 -16t78.5 16t63.5 44t42.5 65.5t15.5 79.5t-15.5 79.5t-42.5 65.5t-63.5 44
t-78.5 16t-78.5 -16t-63.5 -44t-42.5 -65.5t-15.5 -79.5zM343 604q11 -12 8 -23.5t-10 -17.5q-21 -17 -34 -25.5t-20.5 -11.5t-12 -1.5t-7.5 4.5q-3 4 -4.5 9t1.5 13.5t12 21.5t27 33q6 6 18 7.5t22 -9.5z" />
    <glyph glyph-name="otilde" unicode="&#xf5;" horiz-adv-x="524" 
d="M21 242q0 50 19 94t52 77t77 52t94 19t94 -19t77 -52t52 -77t19 -94t-19 -94t-52 -77t-77 -52t-94 -19t-94 19t-77 52t-52 77t-19 94zM63 242q0 -42 15.5 -79.5t42.5 -65.5t63.5 -44t78.5 -16t78.5 16t63.5 44t42.5 65.5t15.5 79.5t-15.5 79.5t-42.5 65.5t-63.5 44
t-78.5 16t-78.5 -16t-63.5 -44t-42.5 -65.5t-15.5 -79.5zM403 656q0 8 6 14t14 6t14 -6t6 -14q0 -23 -9 -46t-24 -42t-35 -30.5t-43 -11.5q-17 0 -29 5.5t-21 13.5t-15.5 18t-12.5 19q-6 8 -12 18t-15 18.5t-20.5 14.5t-27.5 6q-15 0 -26 -9t-18.5 -23t-11.5 -30.5t-4 -31.5
q0 -8 -6 -14t-14 -6t-14 6t-6 14q0 23 7 46.5t20 42t31.5 30.5t41.5 12q21 0 36.5 -5.5t26.5 -14.5t18.5 -20t14.5 -21q4 -7 9 -15.5t12 -16.5t15.5 -13.5t20.5 -5.5q16 0 29 8.5t22 22t14.5 30t5.5 31.5z" />
    <glyph glyph-name="odieresis" unicode="&#xf6;" horiz-adv-x="524" 
d="M21 242q0 50 19 94t52 77t77 52t94 19t94 -19t77 -52t52 -77t19 -94t-19 -94t-52 -77t-77 -52t-94 -19t-94 19t-77 52t-52 77t-19 94zM63 242q0 -42 15.5 -79.5t42.5 -65.5t63.5 -44t78.5 -16t78.5 16t63.5 44t42.5 65.5t15.5 79.5t-15.5 79.5t-42.5 65.5t-63.5 44
t-78.5 16t-78.5 -16t-63.5 -44t-42.5 -65.5t-15.5 -79.5zM163 595q0 12 8 20.5t20 8.5t20.5 -8.5t8.5 -20.5t-8.5 -20t-20.5 -8t-20 8t-8 20zM303 595q0 12 8 20.5t20 8.5t20.5 -8.5t8.5 -20.5t-8.5 -20t-20.5 -8t-20 8t-8 20z" />
    <glyph glyph-name="ugrave" unicode="&#xf9;" horiz-adv-x="554" 
d="M480 128q-7 -19 -26.5 -41t-48.5 -41.5t-65.5 -32.5t-77.5 -13q-50 0 -91.5 19t-71.5 51.5t-46.5 76.5t-16.5 94v221q0 9 5.5 15t14.5 6t14.5 -6t5.5 -15v-220q0 -42 13 -79.5t37.5 -65.5t59 -44t76.5 -16q41 0 80.5 17t70 45.5t49 66t18.5 78.5v218q0 9 5.5 15t14.5 6
t14.5 -6t5.5 -15v-451q0 -11 -11 -11q-15 0 -22 17t-7 55v56zM221 604q10 11 22 9.5t18 -7.5q18 -20 27 -33t12 -21.5t1.5 -13.5t-4.5 -9q-3 -3 -7.5 -4.5t-12 1.5t-20.5 11.5t-34 25.5q-7 6 -10 17.5t8 23.5z" />
    <glyph glyph-name="uacute" unicode="&#xfa;" horiz-adv-x="526" 
d="M463 128q-7 -19 -26.5 -41t-48.5 -41.5t-65.5 -32.5t-77.5 -13q-50 0 -91.5 19t-71.5 51.5t-46.5 76.5t-16.5 94v221q0 9 5.5 15t14.5 6t14.5 -6t5.5 -15v-220q0 -42 13 -79.5t37.5 -65.5t59 -44t76.5 -16q41 0 80.5 17t70 45.5t49 66t18.5 78.5v218q0 9 5.5 15t14.5 6
t14.5 -6t5.5 -15v-451q0 -11 -11 -11q-15 0 -22 17t-7 55v56zM342 604q11 -12 8 -23.5t-10 -17.5q-21 -17 -34 -25.5t-20.5 -11.5t-12 -1.5t-7.5 4.5q-3 4 -4.5 9t1.5 13.5t12 21.5t27 33q6 6 18 7.5t22 -9.5z" />
    <glyph glyph-name="udieresis" unicode="&#xfc;" horiz-adv-x="551" 
d="M477 128q-7 -19 -26.5 -41t-48.5 -41.5t-65.5 -32.5t-77.5 -13q-50 0 -91.5 19t-71.5 51.5t-46.5 76.5t-16.5 94v221q0 9 5.5 15t14.5 6t14.5 -6t5.5 -15v-220q0 -42 13 -79.5t37.5 -65.5t59 -44t76.5 -16q41 0 80.5 17t70 45.5t49 66t18.5 78.5v218q0 9 5.5 15t14.5 6
t14.5 -6t5.5 -15v-451q0 -11 -11 -11q-15 0 -22 17t-7 55v56zM177 596q0 12 8 20.5t20 8.5t20.5 -8.5t8.5 -20.5t-8.5 -20t-20.5 -8t-20 8t-8 20zM317 596q0 12 8 20.5t20 8.5t20.5 -8.5t8.5 -20.5t-8.5 -20t-20.5 -8t-20 8t-8 20z" />
    <glyph glyph-name="yacute" unicode="&#xfd;" horiz-adv-x="554" 
d="M200 -160q4 8 12 10.5t16 -1.5q47 -15 92.5 -10t81 27t57 60.5t21.5 91.5v109q-9 -25 -29.5 -48t-49 -41t-62.5 -28.5t-71 -10.5q-50 0 -92.5 19t-73.5 52t-48.5 77t-17.5 94v220q0 22 21 22t21 -22v-220q0 -42 13.5 -79.5t38.5 -65.5t60 -44t77 -16t80.5 16t67.5 44
t46 65.5t17 79.5v4v24.5v65v126.5q0 22 21 22t21 -22v-417v-2v-24q0 -59 -23.5 -105.5t-64.5 -75t-96.5 -36.5t-119.5 9q-13 4 -16.5 13t0.5 17zM363 605q11 -12 8 -23.5t-10 -17.5q-21 -17 -34 -25.5t-20.5 -11.5t-12 -1.5t-7.5 4.5q-3 4 -4.5 9t1.5 13.5t12 21.5t27 33
q6 6 18 7.5t22 -9.5z" />
    <glyph glyph-name="ydieresis" unicode="&#xff;" horiz-adv-x="554" 
d="M199 -160q4 8 12 10.5t16 -1.5q47 -15 92.5 -10t81 27t57 60.5t21.5 91.5v109q-9 -25 -29.5 -48t-49 -41t-62.5 -28.5t-71 -10.5q-50 0 -92.5 19t-73.5 52t-48.5 77t-17.5 94v220q0 22 21 22t21 -22v-220q0 -42 13.5 -79.5t38.5 -65.5t60 -44t77 -16t80.5 16t67.5 44
t46 65.5t17 79.5v4v24.5v65v126.5q0 22 21 22t21 -22v-417v-2v-24q0 -59 -23.5 -105.5t-64.5 -75t-96.5 -36.5t-119.5 9q-13 4 -16.5 13t0.5 17zM188 595q0 12 8 20.5t20 8.5t20.5 -8.5t8.5 -20.5t-8.5 -20t-20.5 -8t-20 8t-8 20zM328 595q0 12 8 20.5t20 8.5t20.5 -8.5
t8.5 -20.5t-8.5 -20t-20.5 -8t-20 8t-8 20z" />
    <glyph glyph-name="C" unicode="C" horiz-adv-x="611" 
d="M549 493q-45 49 -95 72.5t-113 23.5q-57 0 -107 -21.5t-87.5 -59t-59 -87.5t-21.5 -107t21.5 -107t59 -87.5t87.5 -59t107 -21.5q63 0 116.5 25.5t91.5 70.5q5 6 9 7.5t8 1.5q8 0 14 -6t6 -13q0 -9 -8 -17q-26 -28 -51.5 -48.5t-53 -34t-60 -20t-72.5 -6.5
q-65 0 -122.5 24.5t-100.5 67.5t-67.5 100.5t-24.5 122.5t24.5 122.5t67.5 100t100.5 67.5t122.5 25q40 0 72.5 -7t60.5 -21t53.5 -34.5t52.5 -48.5q6 -6 6 -14t-6 -14t-14 -6q-9 0 -17 9z" />
    <glyph glyph-name="D" unicode="D" horiz-adv-x="595" 
d="M60 0q-8 0 -14 6t-6 14v591q0 4 -1 7.5t0 6.5t5 4.5t14 1.5h4h157q65 0 122.5 -25t100.5 -68t68 -100.5t25 -122.5t-25 -122.5t-68 -100.5t-100.5 -67.5t-122.5 -24.5h-159zM495 315q0 57 -22 107t-59.5 87.5t-87.5 59.5t-107 22h-139v-551h139q57 0 107 21.5t87.5 59
t59.5 87.5t22 107z" />
    <glyph glyph-name="E" unicode="E" horiz-adv-x="476" 
d="M474 20q0 -8 -6 -14t-14 -6h-395q-8 0 -13 6t-5 14v584q0 4 -1.5 8.5t-1.5 8.5t2.5 7t10.5 3h403q8 0 14 -6t6 -14t-6 -14t-14 -6h-373v-285h308q8 0 14 -6t6 -14t-6 -14t-14 -6h-308v-226h373q8 0 14 -6t6 -14z" />
    <glyph glyph-name="F" unicode="F" horiz-adv-x="459" 
d="M393 286q0 -8 -6 -14t-14 -6h-295v-246q0 -8 -6 -14t-14 -6t-14 6t-6 14v584q0 4 -1.5 8.5t-1.5 8.5t2.5 7t10.5 3h391q8 0 14 -6t6 -14t-6 -14t-14 -6h-361v-285h295q8 0 14 -6t6 -14z" />
    <glyph glyph-name="H" unicode="H" horiz-adv-x="565" 
d="M527 20q0 -8 -6 -14t-14 -6t-14 6t-6 14v273h-408v-273q0 -8 -6 -14t-14 -6t-14 6t-6 14v591q0 4 -1 7.5t0 6.5t5 4.5t14 1.5q11 0 16.5 -6t5.5 -14v-278h408v278q0 4 -1 7.5t0 6.5t5 4.5t14 1.5q11 0 16.5 -6t5.5 -14v-591z" />
    <glyph glyph-name="I" unicode="I" horiz-adv-x="115" 
d="M83 20q0 -8 -6 -14t-14 -6t-14 6t-6 14v590q0 4 -1 7.5t0 6.5t5 4.5t14 1.5q11 0 16.5 -6t5.5 -14v-590z" />
    <glyph glyph-name="J" unicode="J" horiz-adv-x="116" 
d="M-87 -134q0 8 6 14t16 6q49 2 76 40t27 94v590l-1 11q0 4 3.5 6.5t15.5 2.5q11 0 16.5 -6t5.5 -14v-590q0 -37 -10 -68.5t-28.5 -55t-45.5 -37t-61 -13.5q-8 0 -14 6t-6 14z" />
    <glyph glyph-name="K" unicode="K" horiz-adv-x="544" 
d="M80 281l416 344q7 5 15 4.5t13 -7.5q6 -6 5.5 -14.5t-8.5 -13.5l-230 -191l235 -372q5 -8 3.5 -15.5t-9.5 -12.5q-17 -10 -28 8l-233 365l-179 -149v-207q0 -8 -6 -14t-14 -6t-14 6t-6 14v590q0 4 -1 7.5t0 6.5t5 4.5t14 1.5q11 0 16.5 -6t5.5 -14v-329z" />
    <glyph glyph-name="L" unicode="L" horiz-adv-x="481" 
d="M481 20q0 -8 -6 -14t-14 -6h-405q-8 0 -13 6t-5 14v590q0 4 -1 7.5t0 6.5t5 4.5t14 1.5q11 0 16.5 -6t5.5 -14v-570h383q8 0 14 -6t6 -14z" />
    <glyph glyph-name="M" unicode="M" horiz-adv-x="660" 
d="M81 556v-536q0 -8 -6 -14t-14 -6t-14 6t-6 14v592l-1 11q0 4 1.5 6t17.5 2h5q11 0 12.5 -2t4.5 -7l252 -327l248 324l6 9t14 3q15 0 18.5 -5.5t3.5 -13.5v-592q0 -8 -6 -14t-14 -6t-14 6t-6 14v534q-55 -71 -114 -144.5t-111 -145.5q-3 -4 -9.5 -9t-15.5 -5
q-10 0 -16 4.5t-10 9.5z" />
    <glyph glyph-name="N" unicode="N" horiz-adv-x="634" 
d="M591 20q0 -8 -6 -14t-14 -6t-12 3t-8 8l-471 545v-536q0 -8 -6 -14t-14 -6t-14 6t-6 14v592q0 4 -1 7.5t-0.5 6t4.5 4t15 1.5q6 0 10.5 -4.5l11.5 -11.5l4.5 -4.5t20 -21.5t45.5 -51.5t82 -95t130 -152t189 -221.5v543q0 4 -1.5 7.5t-1 6t5 4t15.5 1.5q16 0 19 -5.5
t3 -13.5v-592z" />
    <glyph glyph-name="R" unicode="R" horiz-adv-x="469" 
d="M443 387q0 -77 -40.5 -132t-106.5 -81l143 -139q5 -5 6 -14t-5 -14t-14 -5.5t-15 5.5l-160 153q-30 -6 -62 -6h-110v-134q0 -8 -6 -14t-14 -6t-14 6t-6 14v591q0 4 -1 7.5t0 6.5t5 4.5t14 1.5h132q52 0 98.5 -18.5t81 -51t54.5 -77.5t20 -97zM403 387q0 44 -17 81.5
t-46 64.5t-68 42.5t-83 15.5h-110v-397h110q44 0 83 13.5t68 38.5t46 61t17 80z" />
    <glyph glyph-name="S" unicode="S" horiz-adv-x="451" 
d="M370 503q-30 44 -63.5 64.5t-84.5 21.5q-26 0 -51.5 -8t-45.5 -23t-33 -36.5t-13 -46.5q0 -27 14.5 -46.5t36 -34.5t46.5 -25.5t47 -17.5q34 -12 69 -27.5t64.5 -37t48 -50.5t19.5 -66q1 -36 -14.5 -67t-43.5 -54t-66 -36t-83 -13q-36 0 -67 8.5t-56.5 23.5t-43 34.5
t-26.5 40.5q-5 11 -5.5 19t7.5 13q7 5 15.5 3t11.5 -10q7 -18 21.5 -34.5t35.5 -29.5t48 -21.5t59 -8.5q31 0 61 9t54 26t38.5 42t13.5 55q-1 27 -16.5 49.5t-39 40t-51.5 30.5t-54 21q-38 12 -71 26.5t-58.5 33.5t-40 44.5t-14.5 59.5t16 62.5t41.5 48.5t58.5 31.5t67 11.5
q35 0 62.5 -9t49.5 -23.5t39 -33.5t30 -40q5 -7 2.5 -14t-9.5 -12t-14 -3t-12 9z" />
    <glyph glyph-name="T" unicode="T" horiz-adv-x="504" 
d="M499 611q0 -8 -6 -14t-14 -6h-207v-571q0 -8 -6 -14t-14 -6t-14 6t-6 14v571h-207q-8 0 -14 6t-6 14t6 14t14 6h454q8 0 14 -6t6 -14z" />
    <glyph glyph-name="U" unicode="U" horiz-adv-x="566" 
d="M39 610q0 4 -1 7.5t0 6.5t5 4.5t14 1.5q11 0 16.5 -6t5.5 -14v-366v-2q0 -42 16 -79t43.5 -64.5t64.5 -43t79 -15.5t79 15.5t64.5 43t44 64.5t16.5 79v2v366q0 4 -1 7.5t0 6.5t5 4.5t14 1.5q11 0 16.5 -6t5.5 -14v-366v-1q0 -51 -19 -95t-52 -77t-77.5 -52t-95.5 -19
t-95 19t-77 52t-52 77t-19 95v367z" />
    <glyph glyph-name="V" unicode="V" horiz-adv-x="504" 
d="M474 631q8 -3 11.5 -10.5t0.5 -15.5l-213 -587q-7 -18 -19 -18q-10 0 -14.5 6t-6.5 12l-214 586q-4 9 0.5 16t10.5 9q9 4 16.5 0.5t10.5 -11.5l196 -542l195 543q3 8 11.5 11t14.5 1z" />
    <glyph glyph-name="W" unicode="W" horiz-adv-x="775" 
d="M756 631q8 -3 11.5 -10.5t0.5 -15.5l-213 -587q-7 -18 -19 -18q-10 0 -14.5 6t-6.5 12l-130 362l-129 -362q-7 -18 -19 -18q-10 0 -14.5 6t-6.5 12l-214 586q-4 9 0.5 16t10.5 9q9 4 16.5 0.5t10.5 -11.5l196 -546l128 360q2 8 7 14.5t14 6.5t13.5 -6.5t7.5 -14.5
l129 -360l195 547q3 8 11.5 11t14.5 1z" />
    <glyph glyph-name="X" unicode="X" horiz-adv-x="677" 
d="M28 625q6 6 14.5 6t14.5 -6l281 -286l281 286q6 6 14.5 6t14.5 -6q5 -5 5.5 -13.5t-5.5 -14.5l-286 -282l285 -281q14 -14 0 -28q-6 -6 -14 -6t-14 6l-281 285l-281 -285q-6 -6 -14 -6t-14 6t-6 14t6 14l285 281l-286 282q-6 6 -5.5 14.5t5.5 13.5z" />
    <glyph glyph-name="Y" unicode="Y" horiz-adv-x="589" 
d="M569 625q6 -5 6 -13.5t-6 -14.5l-255 -255v-322q0 -8 -6 -14t-14 -6t-14 6t-6 14v322l-255 255q-6 6 -6 14.5t6 13.5q14 14 28 0l247 -246l247 246q14 14 28 0z" />
    <glyph glyph-name="Z" unicode="Z" horiz-adv-x="523" 
d="M510 611q0 -8 -5 -14l-438 -564l423 7q8 0 14 -6t6 -14t-6 -14t-14 -6h-448q-10 0 -17.5 2t-9.5 12q-2 7 0.5 13.5t6.5 11.5l434 557l-422 -5q-8 0 -14 6t-6 14t6 14t14 6h456q8 0 14 -6t6 -14z" />
    <glyph glyph-name="Egrave" unicode="&#xc8;" horiz-adv-x="481" 
d="M471 20q0 -8 -6 -14t-14 -6h-395q-8 0 -13 6t-5 14v584q0 4 -1.5 8.5t-1.5 8.5t2.5 7t10.5 3h403q8 0 14 -6t6 -14t-6 -14t-14 -6h-373v-285h308q8 0 14 -6t6 -14t-6 -14t-14 -6h-308v-226h373q8 0 14 -6t6 -14zM196 743q10 11 22 9.5t18 -7.5q18 -20 27 -33t12 -21.5
t1.5 -13.5t-4.5 -9q-3 -3 -7.5 -4.5t-12 1.5t-20.5 11.5t-34 25.5q-7 6 -10 17.5t8 23.5z" />
    <glyph glyph-name="Eacute" unicode="&#xc9;" horiz-adv-x="481" 
d="M471 20q0 -8 -6 -14t-14 -6h-395q-8 0 -13 6t-5 14v584q0 4 -1.5 8.5t-1.5 8.5t2.5 7t10.5 3h403q8 0 14 -6t6 -14t-6 -14t-14 -6h-373v-285h308q8 0 14 -6t6 -14t-6 -14t-14 -6h-308v-226h373q8 0 14 -6t6 -14zM317 744q11 -12 8 -23.5t-10 -17.5q-21 -17 -34 -25.5
t-20.5 -11.5t-12 -1.5t-7.5 4.5q-3 4 -4.5 9t1.5 13.5t12 21.5t27 33q6 6 18 7.5t22 -9.5z" />
    <glyph glyph-name="Edieresis" unicode="&#xcb;" horiz-adv-x="478" 
d="M470 20q0 -8 -6 -14t-14 -6h-395q-8 0 -13 6t-5 14v584q0 4 -1.5 8.5t-1.5 8.5t2.5 7t10.5 3h403q8 0 14 -6t6 -14t-6 -14t-14 -6h-373v-285h308q8 0 14 -6t6 -14t-6 -14t-14 -6h-308v-226h373q8 0 14 -6t6 -14zM155 721q0 12 8 20.5t20 8.5t20.5 -8.5t8.5 -20.5
t-8.5 -20t-20.5 -8t-20 8t-8 20zM295 721q0 12 8 20.5t20 8.5t20.5 -8.5t8.5 -20.5t-8.5 -20t-20.5 -8t-20 8t-8 20z" />
    <glyph glyph-name="Igrave" unicode="&#xcc;" horiz-adv-x="121" 
d="M85 20q0 -8 -6 -14t-14 -6t-14 6t-6 14v590q0 4 -1 7.5t0 6.5t5 4.5t14 1.5q11 0 16.5 -6t5.5 -14v-590zM-5 743q10 11 22 9.5t18 -7.5q18 -20 27 -33t12 -21.5t1.5 -13.5t-4.5 -9q-3 -3 -7.5 -4.5t-12 1.5t-20.5 11.5t-34 25.5q-7 6 -10 17.5t8 23.5z" />
    <glyph glyph-name="Iacute" unicode="&#xcd;" horiz-adv-x="119" 
d="M83 20q0 -8 -6 -14t-14 -6t-14 6t-6 14v590q0 4 -1 7.5t0 6.5t5 4.5t14 1.5q11 0 16.5 -6t5.5 -14v-590zM129 743q11 -12 8 -23.5t-10 -17.5q-21 -17 -34 -25.5t-20.5 -11.5t-12 -1.5t-7.5 4.5q-3 4 -4.5 9t1.5 13.5t12 21.5t27 33q6 6 18 7.5t22 -9.5z" />
    <glyph glyph-name="Idieresis" unicode="&#xcf;" horiz-adv-x="119" 
d="M87 20q0 -8 -6 -14t-14 -6t-14 6t-6 14v590q0 4 -1 7.5t0 6.5t5 4.5t14 1.5q11 0 16.5 -6t5.5 -14v-590zM-37 722q0 12 8 20.5t20 8.5t20.5 -8.5t8.5 -20.5t-8.5 -20t-20.5 -8t-20 8t-8 20zM103 722q0 12 8 20.5t20 8.5t20.5 -8.5t8.5 -20.5t-8.5 -20t-20.5 -8t-20 8
t-8 20z" />
    <glyph glyph-name="Ugrave" unicode="&#xd9;" horiz-adv-x="565" 
d="M40 610q0 4 -1 7.5t0 6.5t5 4.5t14 1.5q11 0 16.5 -6t5.5 -14v-366v-2q0 -42 16 -79t43.5 -64.5t64.5 -43t79 -15.5t79 15.5t64.5 43t44 64.5t16.5 79v2v366q0 4 -1 7.5t0 6.5t5 4.5t14 1.5q11 0 16.5 -6t5.5 -14v-366v-1q0 -51 -19 -95t-52 -77t-77.5 -52t-95.5 -19
t-95 19t-77 52t-52 77t-19 95v367zM231 744q10 11 22 9.5t18 -7.5q18 -20 27 -33t12 -21.5t1.5 -13.5t-4.5 -9q-3 -3 -7.5 -4.5t-12 1.5t-20.5 11.5t-34 25.5q-7 6 -10 17.5t8 23.5z" />
    <glyph glyph-name="Uacute" unicode="&#xda;" horiz-adv-x="525" 
d="M23 610q0 4 -1 7.5t0 6.5t5 4.5t14 1.5q11 0 16.5 -6t5.5 -14v-366v-2q0 -42 16 -79t43.5 -64.5t64.5 -43t79 -15.5t79 15.5t64.5 43t44 64.5t16.5 79v2v366q0 4 -1 7.5t0 6.5t5 4.5t14 1.5q11 0 16.5 -6t5.5 -14v-366v-1q0 -51 -19 -95t-52 -77t-77.5 -52t-95.5 -19
t-95 19t-77 52t-52 77t-19 95v367zM342 743q11 -12 8 -23.5t-10 -17.5q-21 -17 -34 -25.5t-20.5 -11.5t-12 -1.5t-7.5 4.5q-3 4 -4.5 9t1.5 13.5t12 21.5t27 33q6 6 18 7.5t22 -9.5z" />
    <glyph glyph-name="ntilde" unicode="&#xf1;" horiz-adv-x="552" 
d="M75 355q7 19 26.5 41t48.5 41.5t65.5 32.5t77.5 13q50 0 91.5 -19t71.5 -51.5t46.5 -76.5t16.5 -94v-221q0 -9 -5.5 -15t-14.5 -6t-14.5 6t-5.5 15v220q0 42 -13 79.5t-37.5 65.5t-59 44t-76.5 16q-41 0 -80.5 -17t-70 -45.5t-49 -66t-18.5 -78.5v-218q0 -9 -5.5 -15
t-14.5 -6t-14.5 6t-5.5 15v451q0 11 11 11q15 0 22 -17t7 -55v-56zM423 655q0 8 6 14t14 6t14 -6t6 -14q0 -23 -9 -46t-24 -42t-35 -30.5t-43 -11.5q-17 0 -29 5.5t-21 13.5t-15.5 18t-12.5 19q-6 8 -12 18t-15 18.5t-20.5 14.5t-27.5 6q-15 0 -26 -9t-18.5 -23t-11.5 -30.5
t-4 -31.5q0 -8 -6 -14t-14 -6t-14 6t-6 14q0 23 7 46.5t20 42t31.5 30.5t41.5 12q21 0 36.5 -5.5t26.5 -14.5t18.5 -20t14.5 -21q4 -7 9 -15.5t12 -16.5t15.5 -13.5t20.5 -5.5q16 0 29 8.5t22 22t14.5 30t5.5 31.5z" />
    <glyph glyph-name="Yacute" unicode="&#xdd;" horiz-adv-x="578" 
d="M567 625q6 -5 6 -13.5t-6 -14.5l-255 -255v-322q0 -8 -6 -14t-14 -6t-14 6t-6 14v322l-255 255q-6 6 -6 14.5t6 13.5q14 14 28 0l247 -246l247 246q14 14 28 0zM367 743q11 -12 8 -23.5t-10 -17.5q-21 -17 -34 -25.5t-20.5 -11.5t-12 -1.5t-7.5 4.5q-3 4 -4.5 9t1.5 13.5
t12 21.5t27 33q6 6 18 7.5t22 -9.5z" />
    <glyph glyph-name="numbersign" unicode="#" horiz-adv-x="636" 
d="M581 215q0 -8 -6 -14t-14 -6h-160q-10 -45 -19.5 -89t-19.5 -89q-2 -8 -9 -13t-15 -3t-12.5 8.5t-2.5 14.5l37 171h-133l-40 -179q-2 -8 -9 -12.5t-15 -2.5t-12.5 8.5t-2.5 14.5l37 171h-156q-8 0 -14 6t-6 14t6 14t14 6h165l40 179h-159q-8 0 -14 6t-6 14t6 14t14 6h168
l37 168q2 8 9 12.5t15 2.5t13 -8.5t3 -14.5l-36 -160h134l37 168q2 8 9 12.5t15 2.5q19 -4 16 -22q-9 -41 -18 -81l-18 -80h148q8 0 14 -6t6 -14t-6 -14t-14 -6h-157q-10 -45 -19.5 -89.5t-20.5 -89.5h151q8 0 14 -6t6 -14zM236 235h133l40 179h-134z" />
    <glyph glyph-name="Ydieresis" unicode="&#x178;" horiz-adv-x="565" 
d="M558 625q6 -5 6 -13.5t-6 -14.5l-255 -255v-322q0 -8 -6 -14t-14 -6t-14 6t-6 14v322l-255 255q-6 6 -6 14.5t6 13.5q14 14 28 0l247 -246l247 246q14 14 28 0zM185 722q0 12 8 20.5t20 8.5t20.5 -8.5t8.5 -20.5t-8.5 -20t-20.5 -8t-20 8t-8 20zM325 722q0 12 8 20.5
t20 8.5t20.5 -8.5t8.5 -20.5t-8.5 -20t-20.5 -8t-20 8t-8 20z" />
    <glyph glyph-name="at" unicode="@" horiz-adv-x="681" 
d="M418 51q17 10 27 -2q9 -11 -2 -24q-7 -8 -19.5 -12.5t-26.5 -7.5t-29 -4t-26 -1q-65 0 -122.5 24.5t-100.5 67.5t-67.5 100.5t-24.5 122.5t24.5 122.5t67.5 100t100.5 67.5t122.5 25t122.5 -25t100 -67.5t67.5 -100t25 -122.5q0 -51 -10.5 -88.5t-26.5 -67.5
q-10 -19 -28 -37.5t-50 -18.5q-18 0 -29 7t-17 17.5t-8 22t-2 21.5v52q-5 -14 -16.5 -26.5t-27 -22.5t-34.5 -16t-40 -6q-28 0 -51.5 11t-41 29t-27 42.5t-9.5 52.5t9.5 52.5t27 43t41 29t51.5 10.5q23 0 43 -7.5t35.5 -18t25.5 -23.5t14 -23v12q0 21 7 31t15 10
q9 0 12.5 -5t3.5 -9v-217q0 -2 0.5 -7t2.5 -10t6.5 -9t13.5 -4q11 0 26 13t26 47q4 13 8 24.5t6.5 24t4 27.5t1.5 37q1 57 -20.5 107t-59.5 87.5t-89 59t-108 21.5t-107 -21.5t-87.5 -59t-59 -87.5t-21.5 -107t21.5 -107.5t59 -89t87.5 -60.5t107 -22q27 0 44.5 3.5
t31.5 11.5zM276 287q0 -41 25 -70t67 -29q21 0 39.5 8t32.5 21.5t22.5 31.5t8.5 38t-8.5 38.5t-23 32.5t-33 22t-38.5 8q-42 0 -67 -29.5t-25 -71.5z" />
    <glyph glyph-name="endash" unicode="&#x2013;" horiz-adv-x="466" 
d="M427 302q0 -8 -6 -14t-14 -6h-348q-8 0 -14 6t-6 14t6 14t14 6h348q8 0 14 -6t6 -14z" />
    <glyph glyph-name="emdash" unicode="&#x2014;" horiz-adv-x="548" 
d="M509 302q0 -8 -6 -14t-14 -6h-430q-8 0 -14 6t-6 14t6 14t14 6h430q8 0 14 -6t6 -14z" />
    <glyph glyph-name="underscore" unicode="_" horiz-adv-x="456" 
d="M417 20q0 -8 -6 -14t-14 -6h-338q-8 0 -14 6t-6 14t6 14t14 6h338q8 0 14 -6t6 -14z" />
    <glyph glyph-name="brokenbar" unicode="&#xa6;" horiz-adv-x="127" 
d="M60 637q8 0 14 -6t6 -14v-333q0 -8 -6 -14t-14 -6t-14 6t-6 14v333q0 8 6 14t14 6zM60 223q8 0 14 -6t6 -14v-333q0 -8 -6 -14t-14 -6t-14 6t-6 14v333q0 8 6 14t14 6z" />
    <glyph glyph-name="oe" unicode="&#x153;" horiz-adv-x="977" 
d="M25 252q0 50 19 94t52 77t77 52t94 19t94 -19t77 -52t52 -77t19 -94t-19 -94t-52 -77t-77 -52t-94 -19t-94 19t-77 52t-52 77t-19 94zM67 252q0 -42 15.5 -79.5t42.5 -65.5t63.5 -44t78.5 -16t78.5 16t63.5 44t42.5 65.5t15.5 79.5t-15.5 79.5t-42.5 65.5t-63.5 44
t-78.5 16t-78.5 -16t-63.5 -44t-42.5 -65.5t-15.5 -79.5zM709 0q-50 0 -94 19t-77 51.5t-52 76.5t-19 94q0 56 20 101t54.5 76.5t80 48.5t95.5 17t93 -18.5t74.5 -51t49.5 -76.5t18 -95q0 -8 -6 -14t-17 -6h-420q3 -39 20 -73t43.5 -59t61.5 -39.5t75 -14.5q37 0 73 13.5
t62 39.5q6 6 15 6t15 -6q5 -6 6 -14.5t-6 -15.5q-12 -10 -28.5 -20.5t-37 -19.5t-45.5 -14.5t-54 -5.5zM717 447q-40 0 -76 -14.5t-64 -39.5t-45.5 -59t-21.5 -73h401q-3 39 -18.5 73t-41 59t-60 39.5t-74.5 14.5z" />
    <glyph glyph-name="divide" unicode="&#xf7;" horiz-adv-x="379" 
d="M378 321q0 -8 -6 -14t-14 -6h-338q-8 0 -14 6t-6 14t6 14t14 6h338q8 0 14 -6t6 -14zM167 477q0 10 6.5 16.5t16.5 6.5t16.5 -6.5t6.5 -16.5t-6.5 -16.5t-16.5 -6.5t-16.5 6.5t-6.5 16.5zM167 170q0 10 6.5 16.5t16.5 6.5t16.5 -6.5t6.5 -16.5t-6.5 -16.5t-16.5 -6.5
t-16.5 6.5t-6.5 16.5z" />
    <glyph glyph-name="periodcentered" unicode="&#xb7;" horiz-adv-x="98" 
d="M20 315q0 12 8 20.5t20 8.5t20.5 -8.5t8.5 -20.5t-8.5 -20t-20.5 -8t-20 8t-8 20z" />
    <glyph glyph-name="space" unicode=" " horiz-adv-x="225" 
 />
    <glyph glyph-name="guillemotright" unicode="&#xbb;" horiz-adv-x="481" 
d="M41 5q-5 6 -5 14.5t5 14.5l221 208l-220 208q-5 6 -5 14.5t5 14.5q6 5 14.5 5t14.5 -5l219 -219q4 -4 7 -7.5t3 -11.5q0 -6 -2.5 -9t-7.5 -8l-220 -219q-6 -5 -14.5 -5t-14.5 5zM211 5q-5 6 -5 14.5t5 14.5l221 208l-220 208q-5 6 -5 14.5t5 14.5q6 5 14.5 5t14.5 -5
l219 -219q4 -4 7 -7.5t3 -11.5q0 -6 -2.5 -9t-7.5 -8l-220 -219q-6 -5 -14.5 -5t-14.5 5z" />
    <glyph glyph-name="oslash" unicode="&#xf8;" horiz-adv-x="522" 
d="M19 242q0 50 19 94t52 77t77 52t94 19q35 0 70 -11l30 76q3 8 10.5 11t15.5 0t11 -10.5t1 -15.5l-30 -76q60 -29 97 -86.5t37 -129.5q0 -50 -19 -94t-52 -77t-77 -52t-94 -19q-40 0 -71 10l-29 -72q-3 -8 -10.5 -10.5t-15.5 0.5t-10.5 10.5t-0.5 15.5l29 71
q-60 30 -97 87.5t-37 129.5zM61 242q0 -42 15.5 -79.5t42.5 -65.5t63.5 -44t78.5 -16t78.5 16t63.5 44t42.5 65.5t15.5 79.5t-15.5 79.5t-42.5 65.5t-63.5 44t-78.5 16t-78.5 -16t-63.5 -44t-42.5 -65.5t-15.5 -79.5z" />
    <glyph glyph-name="daggerdbl" unicode="&#x2021;" horiz-adv-x="394" 
d="M391 231q0 -8 -6 -14t-14 -6l-157 3l3 -327q0 -8 -6 -14t-14 -6t-14 6t-6 14l2 327l-156 -3q-8 0 -14 6t-6 14t6 14t14 6l157 -3v116l-157 -3q-8 0 -14 6t-6 14t6 14t14 6l157 -3l-3 219q0 8 6 14t14 6t14 -6t6 -14l-3 -219l157 3q8 0 14 -6t6 -14t-6 -14t-14 -6l-157 3
v-116l157 3q8 0 14 -6t6 -14z" />
    <glyph glyph-name="dagger" unicode="&#x2020;" horiz-adv-x="393" 
d="M391 381q0 -8 -6 -14t-14 -6l-158 3l3 -477q0 -8 -6 -14t-14 -6t-14 6t-6 14l3 477l-157 -3q-8 0 -14 6t-6 14t6 14t14 6l157 -3l-3 219q0 8 6 14t14 6t14 -6t6 -14l-3 -219l158 3q8 0 14 -6t6 -14z" />
    <glyph glyph-name="ellipsis" unicode="&#x2026;" horiz-adv-x="249" 
d="M22 23q0 10 6.5 16.5t16.5 6.5t16.5 -6.5t6.5 -16.5t-6.5 -16.5t-16.5 -6.5t-16.5 6.5t-6.5 16.5zM102 23q0 10 6.5 16.5t16.5 6.5t16.5 -6.5t6.5 -16.5t-6.5 -16.5t-16.5 -6.5t-16.5 6.5t-6.5 16.5zM182 23q0 10 6.5 16.5t16.5 6.5t16.5 -6.5t6.5 -16.5t-6.5 -16.5
t-16.5 -6.5t-16.5 6.5t-6.5 16.5z" />
    <glyph glyph-name="asciicircum" unicode="^" horiz-adv-x="393" 
d="M369 445q-6 -5 -14.5 -5t-14.5 5l-143 151l-144 -151q-6 -5 -14.5 -5t-14.5 5q-5 6 -5 14.5t5 14.5l155 154q4 4 7.5 7t11.5 3q6 0 9 -2.5t8 -7.5l154 -154q5 -6 5 -14.5t-5 -14.5z" />
    <glyph glyph-name="plusminus" unicode="&#xb1;" horiz-adv-x="382" 
d="M380 20q0 -8 -6 -14t-14 -6h-338q-8 0 -14 6t-6 14t6 14t14 6h338q8 0 14 -6t6 -14zM191 223q-8 0 -14 6t-6 14l2 151l-151 -2q-8 0 -14 6t-6 14t6 14t14 6l151 -2l-2 151q0 8 6 14t14 6t14 -6t6 -14l-2 -151l151 2q8 0 14 -6t6 -14t-6 -14t-14 -6l-151 2l2 -151
q0 -8 -6 -14t-14 -6z" />
    <glyph glyph-name="guilsinglright" unicode="&#x203a;" horiz-adv-x="299" 
d="M38 5q-5 6 -5 14.5t5 14.5l221 208l-220 208q-5 6 -5 14.5t5 14.5q6 5 14.5 5t14.5 -5l219 -219q4 -4 7 -7.5t3 -11.5q0 -6 -2.5 -9t-7.5 -8l-220 -219q-6 -5 -14.5 -5t-14.5 5z" />
    <glyph glyph-name="guilsinglleft" unicode="&#x2039;" horiz-adv-x="298" 
d="M261 5q-6 -5 -14.5 -5t-14.5 5l-220 219q-5 5 -7.5 8t-2.5 9q0 8 3 11.5t7 7.5l219 219q6 5 14.5 5t14.5 -5q5 -6 5 -14.5t-5 -14.5l-220 -208l221 -208q5 -6 5 -14.5t-5 -14.5z" />
    <glyph glyph-name="copyright" unicode="&#xa9;" horiz-adv-x="684" 
d="M27 315q0 65 24.5 122.5t67.5 100t100.5 67.5t122.5 25t122.5 -25t100 -67.5t67.5 -100t25 -122.5t-25 -122.5t-67.5 -100.5t-100 -67.5t-122.5 -24.5t-122.5 24.5t-100.5 67.5t-67.5 100.5t-24.5 122.5zM67 315q0 -57 21.5 -107t59 -87.5t87.5 -59t107 -21.5t107 21.5
t87.5 59t59 87.5t21.5 107t-21.5 107t-59 87.5t-87.5 59t-107 21.5t-107 -21.5t-87.5 -59t-59 -87.5t-21.5 -107zM448 442q-22 20 -49.5 30t-59.5 10q-35 0 -64.5 -13t-51 -35.5t-33.5 -53t-12 -64.5q0 -35 12 -65t33.5 -52.5t51 -35.5t64.5 -13q31 0 60 9.5t51 31.5
q5 5 13 6t13 -7q10 -12 -2 -24q-18 -18 -52.5 -33.5t-82.5 -15.5q-41 0 -77.5 15.5t-63.5 42.5t-42.5 63.5t-15.5 77.5t15.5 77.5t42.5 63.5t63.5 42.5t77.5 15.5q35 0 71.5 -11.5t62.5 -36.5q4 -5 4.5 -12.5t-4.5 -12.5t-12 -5q-6 0 -13 5z" />
    <glyph glyph-name="registered" unicode="&#xae;" horiz-adv-x="684" 
d="M27 315q0 65 24.5 122.5t67.5 100t100.5 67.5t122.5 25t122.5 -25t100 -67.5t67.5 -100t25 -122.5t-25 -122.5t-67.5 -100.5t-100 -67.5t-122.5 -24.5t-122.5 24.5t-100.5 67.5t-67.5 100.5t-24.5 122.5zM67 315q0 -57 21.5 -107t59 -87.5t87.5 -59t107 -21.5t107 21.5
t87.5 59t59 87.5t21.5 107t-21.5 107t-59 87.5t-87.5 59t-107 21.5t-107 -21.5t-87.5 -59t-59 -87.5t-21.5 -107zM320 407q4 16 16 33t29.5 31t38.5 22.5t44 8.5q8 0 14 -0.5t15 -3.5q19 -6 18 -24q-2 -9 -9 -12.5t-16 -1.5q-6 1 -8 1.5l-4 1t-5.5 0.5h-10.5
q-23 0 -45 -13.5t-39 -36.5t-27.5 -55.5t-10.5 -69.5v-158q0 -9 -5.5 -15t-14.5 -6t-14.5 6t-5.5 15v361q0 11 11 11q15 0 22 -17t7 -55v-23z" />
    <glyph glyph-name="ordmasculine" unicode="&#xba;" horiz-adv-x="435" 
d="M25 293q0 40 15 75t41.5 61.5t61.5 41.5t75 15t75 -15t61.5 -41.5t41.5 -61.5t15 -75t-15 -75t-41.5 -61.5t-61.5 -41.5t-75 -15t-75 15t-61.5 41.5t-41.5 61.5t-15 75zM412 20q0 -8 -6 -14t-14 -6h-349q-8 0 -14 6t-6 14t6 14t14 6h349q8 0 14 -6t6 -14zM65 293
q0 -32 12 -59.5t33 -48.5t48.5 -33t59.5 -12q31 0 59 12t49 33t33 48.5t12 59.5q0 31 -12 59t-33 49t-49 33t-59 12q-32 0 -59.5 -12t-48.5 -33t-33 -49t-12 -59z" />
    <glyph glyph-name="O" unicode="O" horiz-adv-x="684" 
d="M24 315q0 65 24.5 122.5t67.5 100t100.5 67.5t122.5 25t122.5 -25t100 -67.5t67.5 -100t25 -122.5t-25 -122.5t-67.5 -100.5t-100 -67.5t-122.5 -24.5t-122.5 24.5t-100.5 67.5t-67.5 100.5t-24.5 122.5zM64 315q0 -57 21.5 -107t59 -87.5t87.5 -59t107 -21.5t107 21.5
t87.5 59t59 87.5t21.5 107t-21.5 107t-59 87.5t-87.5 59t-107 21.5t-107 -21.5t-87.5 -59t-59 -87.5t-21.5 -107z" />
    <glyph glyph-name="P" unicode="P" horiz-adv-x="443" 
d="M443 387q0 -53 -20 -95.5t-54.5 -73.5t-81 -47.5t-98.5 -16.5h-110v-134q0 -8 -6 -14t-14 -6t-14 6t-6 14v591q0 4 -1 7.5t0 6.5t5 4.5t14 1.5h132q52 0 98.5 -18.5t81 -51t54.5 -77.5t20 -97zM403 387q0 44 -17 81.5t-46 64.5t-68 42.5t-83 15.5h-110v-397h110
q44 0 83 13.5t68 38.5t46 61t17 80z" />
    <glyph glyph-name="Q" unicode="Q" horiz-adv-x="672" 
d="M336 -118q-18 0 -18 18l-2 101q-62 4 -116 30t-93.5 68t-62.5 97.5t-23 118.5q0 65 24.5 122.5t67.5 100t100.5 67.5t122.5 25t122.5 -25t100 -67.5t67.5 -100t25 -122.5q0 -63 -23 -118.5t-63 -97.5t-94 -68t-115 -30l-2 -101q0 -18 -18 -18zM61 315q0 -57 21.5 -107
t59 -87.5t87.5 -59t107 -21.5t107 21.5t87.5 59t59 87.5t21.5 107t-21.5 107t-59 87.5t-87.5 59t-107 21.5t-107 -21.5t-87.5 -59t-59 -87.5t-21.5 -107z" />
    <glyph glyph-name="G" unicode="G" horiz-adv-x="657" 
d="M333 40q42 0 81.5 14.5t71.5 39.5t53.5 58.5t27.5 72.5h-173q-8 0 -14 6t-6 14t6 14t14 6h195h2q8 -1 13 -6.5t5 -13.5v-225q0 -8 -6 -14t-14 -6t-14 6t-6 14v115q-9 -26 -32 -50.5t-55 -43.5t-70.5 -30t-78.5 -11q-65 0 -121.5 24.5t-97.5 67.5t-64.5 100.5t-23.5 122.5
t24.5 122.5t67.5 100t100.5 67.5t122.5 25q40 0 72.5 -7t60.5 -21t53.5 -34.5t52.5 -48.5q6 -6 6 -14t-6 -14t-14 -6q-9 0 -17 9q-45 49 -95 72.5t-113 23.5q-57 0 -107 -21.5t-87.5 -59t-59 -87.5t-21.5 -107t20.5 -107t56 -87.5t84.5 -59t106 -21.5z" />
    <glyph glyph-name="b" unicode="b" 
d="M80 72q0 -38 -7 -55t-22 -17q-11 0 -11 11v605q0 8 6 14t14 6t14 -6t6 -14v-2v-259q7 19 25.5 41t46.5 41.5t63.5 32.5t76.5 13q50 0 92.5 -19t73.5 -52t48.5 -77t17.5 -94t-17.5 -94t-48.5 -77t-73.5 -52t-92.5 -19q-37 0 -71 10.5t-62.5 28.5t-49 41t-29.5 48v-55z
M481 241q0 42 -13.5 79.5t-38.5 65.5t-60 44t-77 16q-41 0 -79 -16.5t-67 -44.5t-46.5 -65.5t-17.5 -78.5q0 -42 17 -79.5t45.5 -65.5t67 -44t80.5 -16t77 16t60 44t38.5 65.5t13.5 79.5z" />
    <glyph glyph-name="Ograve" unicode="&#xd2;" horiz-adv-x="676" 
d="M21 315q0 65 24.5 122.5t67.5 100t100.5 67.5t122.5 25t122.5 -25t100 -67.5t67.5 -100t25 -122.5t-25 -122.5t-67.5 -100.5t-100 -67.5t-122.5 -24.5t-122.5 24.5t-100.5 67.5t-67.5 100.5t-24.5 122.5zM61 315q0 -57 21.5 -107t59 -87.5t87.5 -59t107 -21.5t107 21.5
t87.5 59t59 87.5t21.5 107t-21.5 107t-59 87.5t-87.5 59t-107 21.5t-107 -21.5t-87.5 -59t-59 -87.5t-21.5 -107zM273 743q10 11 22 9.5t18 -7.5q18 -20 27 -33t12 -21.5t1.5 -13.5t-4.5 -9q-3 -3 -7.5 -4.5t-12 1.5t-20.5 11.5t-34 25.5q-7 6 -10 17.5t8 23.5z" />
    <glyph glyph-name="Oacute" unicode="&#xd3;" horiz-adv-x="676" 
d="M21 315q0 65 24.5 122.5t67.5 100t100.5 67.5t122.5 25t122.5 -25t100 -67.5t67.5 -100t25 -122.5t-25 -122.5t-67.5 -100.5t-100 -67.5t-122.5 -24.5t-122.5 24.5t-100.5 67.5t-67.5 100.5t-24.5 122.5zM61 315q0 -57 21.5 -107t59 -87.5t87.5 -59t107 -21.5t107 21.5
t87.5 59t59 87.5t21.5 107t-21.5 107t-59 87.5t-87.5 59t-107 21.5t-107 -21.5t-87.5 -59t-59 -87.5t-21.5 -107zM407 743q11 -12 8 -23.5t-10 -17.5q-21 -17 -34 -25.5t-20.5 -11.5t-12 -1.5t-7.5 4.5q-3 4 -4.5 9t1.5 13.5t12 21.5t27 33q6 6 18 7.5t22 -9.5z" />
    <glyph glyph-name="Odieresis" unicode="&#xd6;" horiz-adv-x="676" 
d="M21 315q0 65 24.5 122.5t67.5 100t100.5 67.5t122.5 25t122.5 -25t100 -67.5t67.5 -100t25 -122.5t-25 -122.5t-67.5 -100.5t-100 -67.5t-122.5 -24.5t-122.5 24.5t-100.5 67.5t-67.5 100.5t-24.5 122.5zM61 315q0 -57 21.5 -107t59 -87.5t87.5 -59t107 -21.5t107 21.5
t87.5 59t59 87.5t21.5 107t-21.5 107t-59 87.5t-87.5 59t-107 21.5t-107 -21.5t-87.5 -59t-59 -87.5t-21.5 -107zM243 722q0 12 8 20.5t20 8.5t20.5 -8.5t8.5 -20.5t-8.5 -20t-20.5 -8t-20 8t-8 20zM383 722q0 12 8 20.5t20 8.5t20.5 -8.5t8.5 -20.5t-8.5 -20t-20.5 -8
t-20 8t-8 20z" />
    <glyph glyph-name="agrave" unicode="&#xe0;" horiz-adv-x="542" 
d="M468 127q-9 -24 -29.5 -47t-48.5 -41t-62.5 -29t-71.5 -11q-50 0 -92.5 19t-73.5 52t-48.5 77t-17.5 94t17.5 94t48.5 77t73.5 52t92.5 19q41 0 76.5 -13t63.5 -32.5t46.5 -41.5t25.5 -41v55q0 38 7 55t22 17q11 0 11 -11v-460q0 -11 -11 -11q-15 0 -22 17t-7 55v55z
M67 241q0 -42 13.5 -79.5t38.5 -65.5t60 -44t77 -16t80.5 16t67 44t45.5 65.5t17 79.5q0 41 -17.5 78.5t-46.5 65.5t-67 44.5t-79 16.5q-42 0 -77 -16t-60 -44t-38.5 -65.5t-13.5 -79.5zM188 604q10 11 22 9.5t18 -7.5q18 -20 27 -33t12 -21.5t1.5 -13.5t-4.5 -9
q-3 -3 -7.5 -4.5t-12 1.5t-20.5 11.5t-34 25.5q-7 6 -10 17.5t8 23.5z" />
    <glyph glyph-name="aacute" unicode="&#xe1;" horiz-adv-x="546" 
d="M468 127q-9 -24 -29.5 -47t-48.5 -41t-62.5 -29t-71.5 -11q-50 0 -92.5 19t-73.5 52t-48.5 77t-17.5 94t17.5 94t48.5 77t73.5 52t92.5 19q41 0 76.5 -13t63.5 -32.5t46.5 -41.5t25.5 -41v55q0 38 7 55t22 17q11 0 11 -11v-460q0 -11 -11 -11q-15 0 -22 17t-7 55v55z
M67 241q0 -42 13.5 -79.5t38.5 -65.5t60 -44t77 -16t80.5 16t67 44t45.5 65.5t17 79.5q0 41 -17.5 78.5t-46.5 65.5t-67 44.5t-79 16.5q-42 0 -77 -16t-60 -44t-38.5 -65.5t-13.5 -79.5zM337 604q11 -12 8 -23.5t-10 -17.5q-21 -17 -34 -25.5t-20.5 -11.5t-12 -1.5t-7.5 4.5
q-3 4 -4.5 9t1.5 13.5t12 21.5t27 33q6 6 18 7.5t22 -9.5z" />
    <glyph glyph-name="ae" unicode="&#xe6;" horiz-adv-x="944" 
d="M459 127q-9 -24 -29.5 -47t-48.5 -41t-62.5 -29t-71.5 -11q-50 0 -92.5 19t-73.5 52t-48.5 77t-17.5 94t17.5 94t48.5 77t73.5 52t92.5 19q41 0 76.5 -13t63.5 -32.5t46.5 -41.5t25.5 -41v55q0 38 7 55t22 17q11 0 11 -11v-460q0 -11 -11 -11q-15 0 -22 17t-7 55v55z
M58 241q0 -42 13.5 -79.5t38.5 -65.5t60 -44t77 -16t80.5 16t67 44t45.5 65.5t17 79.5q0 41 -17.5 78.5t-46.5 65.5t-67 44.5t-79 16.5q-42 0 -77 -16t-60 -44t-38.5 -65.5t-13.5 -79.5zM699 0q-50 0 -94 19t-77 51.5t-52 76.5t-19 94q0 56 20 101t54.5 76.5t80 48.5
t95.5 17t93 -18.5t74.5 -51t49.5 -76.5t18 -95q0 -8 -6 -14t-17 -6h-420q3 -39 20 -73t43.5 -59t61.5 -39.5t75 -14.5q37 0 73 13.5t62 39.5q6 6 15 6t15 -6q5 -6 6 -14.5t-6 -15.5q-12 -10 -28.5 -20.5t-37 -19.5t-45.5 -14.5t-54 -5.5zM707 447q-40 0 -76 -14.5t-64 -39.5
t-45.5 -59t-21.5 -73h401q-3 39 -18.5 73t-41 59t-60 39.5t-74.5 14.5z" />
    <glyph glyph-name="adieresis" unicode="&#xe4;" horiz-adv-x="542" 
d="M468 127q-9 -24 -29.5 -47t-48.5 -41t-62.5 -29t-71.5 -11q-50 0 -92.5 19t-73.5 52t-48.5 77t-17.5 94t17.5 94t48.5 77t73.5 52t92.5 19q41 0 76.5 -13t63.5 -32.5t46.5 -41.5t25.5 -41v55q0 38 7 55t22 17q11 0 11 -11v-460q0 -11 -11 -11q-15 0 -22 17t-7 55v55z
M67 241q0 -42 13.5 -79.5t38.5 -65.5t60 -44t77 -16t80.5 16t67 44t45.5 65.5t17 79.5q0 41 -17.5 78.5t-46.5 65.5t-67 44.5t-79 16.5q-42 0 -77 -16t-60 -44t-38.5 -65.5t-13.5 -79.5zM167 595q0 12 8 20.5t20 8.5t20.5 -8.5t8.5 -20.5t-8.5 -20t-20.5 -8t-20 8t-8 20z
M307 595q0 12 8 20.5t20 8.5t20.5 -8.5t8.5 -20.5t-8.5 -20t-20.5 -8t-20 8t-8 20z" />
    <glyph glyph-name="Udieresis" unicode="&#xdc;" horiz-adv-x="551" 
d="M36 610q0 4 -1 7.5t0 6.5t5 4.5t14 1.5q11 0 16.5 -6t5.5 -14v-366v-2q0 -42 16 -79t43.5 -64.5t64.5 -43t79 -15.5t79 15.5t64.5 43t44 64.5t16.5 79v2v366q0 4 -1 7.5t0 6.5t5 4.5t14 1.5q11 0 16.5 -6t5.5 -14v-366v-1q0 -51 -19 -95t-52 -77t-77.5 -52t-95.5 -19
t-95 19t-77 52t-52 77t-19 95v367zM184 723q0 12 8 20.5t20 8.5t20.5 -8.5t8.5 -20.5t-8.5 -20t-20.5 -8t-20 8t-8 20zM324 723q0 12 8 20.5t20 8.5t20.5 -8.5t8.5 -20.5t-8.5 -20t-20.5 -8t-20 8t-8 20z" />
    <glyph glyph-name="OE" unicode="&#x152;" horiz-adv-x="788" 
d="M344 0q-65 0 -122.5 24.5t-100.5 67.5t-67.5 100.5t-24.5 122.5t24.5 122.5t67.5 100t100.5 67.5t122.5 25h413q8 0 14 -6t6 -14t-6 -14t-14 -6h-373v-284h308q8 0 14 -6t6 -14t-6 -14t-14 -6h-308v-226h373q8 0 14 -6t6 -14t-6 -14t-14 -6h-413zM69 315q0 -57 21.5 -107
t59 -87.5t87.5 -59t107 -21.5v550q-57 0 -107 -21.5t-87.5 -59t-59 -87.5t-21.5 -107z" />
    <glyph glyph-name="zcaron" unicode="&#x17e;" horiz-adv-x="524" 
d="M378 645q6 -6 6 -16.5t-6 -15.5l-95 -83q-4 -3 -8 -5.5t-10 -2.5q-7 0 -11 3t-7 5l-94 83q-5 5 -6 14.5t7 17.5q7 7 16 5.5t15 -6.5l80 -77l82 77q6 5 15.5 6t15.5 -5zM34 463q0 8 5.5 14.5t13.5 6.5h415q8 0 13.5 -5.5t5.5 -13.5q0 -7 -7 -14l-401 -414l408 2q8 0 14 -6
t6 -14t-6 -13.5t-14 -5.5h-452q-8 0 -13 5t-5 13t7 15l400 413l-371 -2q-8 0 -13.5 5.5t-5.5 13.5z" />
    <glyph glyph-name="A" unicode="A" 
d="M264 631q6 0 12.5 -3t9.5 -10l231 -591q3 -8 -0.5 -15.5t-11.5 -10.5t-15.5 0.5t-10.5 11.5l-62 157h-300l-61 -157q-3 -8 -10.5 -11.5t-15.5 -0.5t-11.5 10.5t-0.5 15.5l228 584q1 4 0 7.5t0 6.5t4.5 4.5t13.5 1.5zM133 210h269l-135 343z" />
    <glyph glyph-name="guillemotleft" unicode="&#xab;" horiz-adv-x="481" 
d="M440 5q-6 -5 -14.5 -5t-14.5 5l-220 219q-5 5 -7.5 8t-2.5 9q0 8 3 11.5t7 7.5l219 219q6 5 14.5 5t14.5 -5q5 -6 5 -14.5t-5 -14.5l-220 -208l221 -208q5 -6 5 -14.5t-5 -14.5zM270 5q-6 -5 -14.5 -5t-14.5 5l-220 219q-5 5 -7.5 8t-2.5 9q0 8 3 11.5t7 7.5l219 219
q6 5 14.5 5t14.5 -5q5 -6 5 -14.5t-5 -14.5l-220 -208l221 -208q5 -6 5 -14.5t-5 -14.5z" />
    <glyph glyph-name="multiply" unicode="&#xd7;" horiz-adv-x="361" 
d="M43 430q6 6 14.5 6t13.5 -6l109 -114l110 114q5 6 13.5 6t14.5 -6t6 -14.5t-6 -13.5l-114 -110l114 -109q6 -5 6 -13.5t-6 -14.5t-14.5 -6t-13.5 6l-110 113l-109 -113q-5 -6 -13.5 -6t-14.5 6t-6 14.5t6 13.5l113 109l-113 110q-6 5 -6 13.5t6 14.5z" />
    <glyph glyph-name="iacute" unicode="&#xed;" horiz-adv-x="116" 
d="M58 484q8 0 14 -6t6 -14v-444q0 -8 -6 -14t-14 -6t-14 6t-6 14v444q0 8 6 14t14 6zM125 603q11 -12 8 -23.5t-10 -17.5q-21 -17 -34 -25.5t-20.5 -11.5t-12 -1.5t-7.5 4.5q-3 4 -4.5 9t1.5 13.5t12 21.5t27 33q6 6 18 7.5t22 -9.5z" />
    <glyph glyph-name="scaron" unicode="&#x161;" horiz-adv-x="464" 
d="M343 646q6 -6 6 -16.5t-6 -15.5l-95 -83q-4 -3 -8 -5.5t-10 -2.5q-7 0 -11 3t-7 5l-94 83q-5 5 -6 14.5t7 17.5q7 7 16 5.5t15 -6.5l80 -77l82 77q6 5 15.5 6t15.5 -5zM222 0q-32 0 -70 9.5t-70.5 27t-54 43t-21.5 57.5q0 12 7 17t12 5q11 0 16.5 -6.5t5.5 -14.5
q0 -15 13.5 -32t37 -31.5t55.5 -24.5t69 -10q67 -1 103 14t53 33t20 33.5t3 16.5q0 43 -47 66.5t-132 28.5q-65 3 -102 17t-56.5 33t-24.5 39t-5 37q0 22 10.5 44.5t33 40.5t59 29.5t87.5 11.5q39 0 75.5 -9t64.5 -25.5t45.5 -39.5t17.5 -52q0 -8 -3 -12t-7 -5.5t-7.5 -2
l-3.5 -0.5q-14 0 -17 9t-3 11q0 15 -12 30.5t-33.5 27.5t-50.5 20t-63 8q-48 0 -77.5 -10t-46 -24t-22.5 -28.5t-6 -23.5q0 -16 5.5 -30t21.5 -25t45 -19t75 -11q41 -3 80.5 -10.5t70.5 -22.5t50 -40t19 -63q0 -37 -19 -63t-49.5 -42.5t-70 -24t-81.5 -7.5z" />
    <glyph glyph-name="asciitilde" unicode="~" horiz-adv-x="619" 
d="M33 233q0 33 11.5 63t32 53.5t48 37.5t60.5 14q27 0 48 -7.5t37 -18.5t28.5 -25t23.5 -27q10 -12 19.5 -25t22 -23.5t30 -17.5t44.5 -7q25 0 45 11t34 29.5t21.5 42t7.5 48.5q0 8 6 14t14 6t14 -6t6 -14q0 -33 -11.5 -63.5t-31 -53.5t-46.5 -37t-59 -14q-27 0 -47.5 6
t-37 16.5t-29 23.5t-23.5 28q-9 12 -21 25.5t-26.5 24.5t-31.5 18t-37 7q-25 0 -45.5 -11t-35 -29t-23 -41t-8.5 -48q0 -8 -6 -14t-14 -6t-14 6t-6 14z" />
    <glyph glyph-name="circumflex" unicode="&#x2c6;" horiz-adv-x="279" 
d="M251 676q-6 -6 -15.5 -5t-15.5 6l-82 77l-80 -77q-6 -5 -15 -6.5t-16 5.5q-8 8 -7 17.5t6 14.5l94 83q3 2 7 5t11 3q6 0 10 -2.5t8 -5.5l95 -83q6 -5 6 -15.5t-6 -16.5z" />
    <glyph glyph-name="Scaron" unicode="&#x160;" horiz-adv-x="471" 
d="M350 786q6 -6 6 -16.5t-6 -15.5l-95 -83q-4 -3 -8 -5.5t-10 -2.5q-7 0 -11 3t-7 5l-94 83q-5 5 -6 14.5t7 17.5q7 7 16 5.5t15 -6.5l80 -77l82 77q6 5 15.5 6t15.5 -5zM381 503q-30 44 -63.5 64.5t-84.5 21.5q-26 0 -51.5 -8t-45.5 -23t-33 -36.5t-13 -46.5
q0 -27 14.5 -46.5t36 -34.5t46.5 -25.5t47 -17.5q34 -12 69 -27.5t64.5 -37t48 -50.5t19.5 -66q1 -36 -14.5 -67t-43.5 -54t-66 -36t-83 -13q-36 0 -67 8.5t-56.5 23.5t-43 34.5t-26.5 40.5q-5 11 -5.5 19t7.5 13q7 5 15.5 3t11.5 -10q7 -18 21.5 -34.5t35.5 -29.5t48 -21.5
t59 -8.5q31 0 61 9t54 26t38.5 42t13.5 55q-1 27 -16.5 49.5t-39 40t-51.5 30.5t-54 21q-38 12 -71 26.5t-58.5 33.5t-40 44.5t-14.5 59.5t16 62.5t41.5 48.5t58.5 31.5t67 11.5q35 0 62.5 -9t49.5 -23.5t39 -33.5t30 -40q5 -7 2.5 -14t-9.5 -12t-14 -3t-12 9z" />
    <glyph glyph-name="Ecircumflex" unicode="&#xca;" horiz-adv-x="484" 
d="M472 20q0 -8 -6 -14t-14 -6h-395q-8 0 -13 6t-5 14v584q0 4 -1.5 8.5t-1.5 8.5t2.5 7t10.5 3h403q8 0 14 -6t6 -14t-6 -14t-14 -6h-373v-285h308q8 0 14 -6t6 -14t-6 -14t-14 -6h-308v-226h373q8 0 14 -6t6 -14zM368 672q-6 -6 -15.5 -5t-15.5 6l-82 77l-80 -77
q-6 -5 -15 -6.5t-16 5.5q-8 8 -7 17.5t6 14.5l94 83q3 2 7 5t11 3q6 0 10 -2.5t8 -5.5l95 -83q6 -5 6 -15.5t-6 -16.5z" />
    <glyph glyph-name="acircumflex" unicode="&#xe2;" horiz-adv-x="552" 
d="M472 127q-9 -24 -29.5 -47t-48.5 -41t-62.5 -29t-71.5 -11q-50 0 -92.5 19t-73.5 52t-48.5 77t-17.5 94t17.5 94t48.5 77t73.5 52t92.5 19q41 0 76.5 -13t63.5 -32.5t46.5 -41.5t25.5 -41v55q0 38 7 55t22 17q11 0 11 -11v-460q0 -11 -11 -11q-15 0 -22 17t-7 55v55z
M71 241q0 -42 13.5 -79.5t38.5 -65.5t60 -44t77 -16t80.5 16t67 44t45.5 65.5t17 79.5q0 41 -17.5 78.5t-46.5 65.5t-67 44.5t-79 16.5q-42 0 -77 -16t-60 -44t-38.5 -65.5t-13.5 -79.5zM373 532q-6 -6 -15.5 -5t-15.5 6l-82 77l-80 -77q-6 -5 -15 -6.5t-16 5.5
q-8 8 -7 17.5t6 14.5l94 83q3 2 7 5t11 3q6 0 10 -2.5t8 -5.5l95 -83q6 -5 6 -15.5t-6 -16.5z" />
    <glyph glyph-name="ecircumflex" unicode="&#xea;" horiz-adv-x="536" 
d="M270 0q-50 0 -94 19t-77 51.5t-52 76.5t-19 94q0 56 20 101t54.5 76.5t80 48.5t95.5 17t93 -18.5t74.5 -51t49.5 -76.5t18 -95q0 -8 -6 -14t-17 -6h-420q3 -39 20 -73t43.5 -59t61.5 -39.5t75 -14.5q37 0 73 13.5t62 39.5q6 6 15 6t15 -6q5 -6 6 -14.5t-6 -15.5
q-12 -10 -28.5 -20.5t-37 -19.5t-45.5 -14.5t-54 -5.5zM278 447q-40 0 -76 -14.5t-64 -39.5t-45.5 -59t-21.5 -73h401q-3 39 -18.5 73t-41 59t-60 39.5t-74.5 14.5zM385 533q-6 -6 -15.5 -5t-15.5 6l-82 77l-80 -77q-6 -5 -15 -6.5t-16 5.5q-8 8 -7 17.5t6 14.5l94 83
q3 2 7 5t11 3q6 0 10 -2.5t8 -5.5l95 -83q6 -5 6 -15.5t-6 -16.5z" />
    <glyph glyph-name="igrave" unicode="&#xec;" horiz-adv-x="108" 
d="M55 484q-8 0 -14 -6t-6 -14v-444q0 -8 6 -14t14 -6t14 6t6 14v444q0 8 -6 14t-14 6zM-18 603q10 11 22 9.5t18 -7.5q18 -20 27 -33t12 -21.5t1.5 -13.5t-4.5 -9q-3 -3 -7.5 -4.5t-12 1.5t-20.5 11.5t-34 25.5q-7 6 -10 17.5t8 23.5z" />
    <glyph glyph-name="Ucircumflex" unicode="&#xdb;" horiz-adv-x="565" 
d="M39 610q0 4 -1 7.5t0 6.5t5 4.5t14 1.5q11 0 16.5 -6t5.5 -14v-366v-2q0 -42 16 -79t43.5 -64.5t64.5 -43t79 -15.5t79 15.5t64.5 43t44 64.5t16.5 79v2v366q0 4 -1 7.5t0 6.5t5 4.5t14 1.5q11 0 16.5 -6t5.5 -14v-366v-1q0 -51 -19 -95t-52 -77t-77.5 -52t-95.5 -19
t-95 19t-77 52t-52 77t-19 95v367zM398 672q-6 -6 -15.5 -5t-15.5 6l-82 77l-80 -77q-6 -5 -15 -6.5t-16 5.5q-8 8 -7 17.5t6 14.5l94 83q3 2 7 5t11 3q6 0 10 -2.5t8 -5.5l95 -83q6 -5 6 -15.5t-6 -16.5z" />
    <glyph glyph-name="Ocircumflex" unicode="&#xd4;" horiz-adv-x="684" 
d="M24 315q0 65 24.5 122.5t67.5 100t100.5 67.5t122.5 25t122.5 -25t100 -67.5t67.5 -100t25 -122.5t-25 -122.5t-67.5 -100.5t-100 -67.5t-122.5 -24.5t-122.5 24.5t-100.5 67.5t-67.5 100.5t-24.5 122.5zM64 315q0 -57 21.5 -107t59 -87.5t87.5 -59t107 -21.5t107 21.5
t87.5 59t59 87.5t21.5 107t-21.5 107t-59 87.5t-87.5 59t-107 21.5t-107 -21.5t-87.5 -59t-59 -87.5t-21.5 -107zM455 671q-6 -6 -15.5 -5t-15.5 6l-82 77l-80 -77q-6 -5 -15 -6.5t-16 5.5q-8 8 -7 17.5t6 14.5l94 83q3 2 7 5t11 3q6 0 10 -2.5t8 -5.5l95 -83q6 -5 6 -15.5
t-6 -16.5z" />
    <glyph glyph-name="Icircumflex" unicode="&#xce;" horiz-adv-x="114" 
d="M82 20q0 -8 -6 -14t-14 -6t-14 6t-6 14v590q0 4 -1 7.5t0 6.5t5 4.5t14 1.5q11 0 16.5 -6t5.5 -14v-590zM172 672q-6 -6 -15.5 -5t-15.5 6l-82 77l-80 -77q-6 -5 -15 -6.5t-16 5.5q-8 8 -7 17.5t6 14.5l94 83q3 2 7 5t11 3q6 0 10 -2.5t8 -5.5l95 -83q6 -5 6 -15.5
t-6 -16.5z" />
    <glyph glyph-name="idieresis" unicode="&#xef;" horiz-adv-x="121" 
d="M61 484q8 0 14 -6t6 -14v-444q0 -8 -6 -14t-14 -6t-14 6t-6 14v444q0 8 6 14t14 6zM-38 593q0 12 8 20.5t20 8.5t20.5 -8.5t8.5 -20.5t-8.5 -20t-20.5 -8t-20 8t-8 20zM102 593q0 12 8 20.5t20 8.5t20.5 -8.5t8.5 -20.5t-8.5 -20t-20.5 -8t-20 8t-8 20z" />
    <glyph glyph-name="icircumflex" unicode="&#xee;" horiz-adv-x="123" 
d="M62 484q-8 0 -14 -6t-6 -14v-444q0 -8 6 -14t14 -6t14 6t6 14v444q0 8 -6 14t-14 6zM174 533q-6 -6 -15.5 -5t-15.5 6l-82 77l-80 -77q-6 -5 -15 -6.5t-16 5.5q-8 8 -7 17.5t6 14.5l94 83q3 2 7 5t11 3q6 0 10 -2.5t8 -5.5l95 -83q6 -5 6 -15.5t-6 -16.5z" />
    <glyph glyph-name="ocircumflex" unicode="&#xf4;" horiz-adv-x="540" 
d="M28 242q0 50 19 94t52 77t77 52t94 19t94 -19t77 -52t52 -77t19 -94t-19 -94t-52 -77t-77 -52t-94 -19t-94 19t-77 52t-52 77t-19 94zM70 242q0 -42 15.5 -79.5t42.5 -65.5t63.5 -44t78.5 -16t78.5 16t63.5 44t42.5 65.5t15.5 79.5t-15.5 79.5t-42.5 65.5t-63.5 44
t-78.5 16t-78.5 -16t-63.5 -44t-42.5 -65.5t-15.5 -79.5zM382 533q-6 -6 -15.5 -5t-15.5 6l-82 77l-80 -77q-6 -5 -15 -6.5t-16 5.5q-8 8 -7 17.5t6 14.5l94 83q3 2 7 5t11 3q6 0 10 -2.5t8 -5.5l95 -83q6 -5 6 -15.5t-6 -16.5z" />
    <glyph glyph-name="ucircumflex" unicode="&#xfb;" horiz-adv-x="557" 
d="M478 128q-7 -19 -26.5 -41t-48.5 -41.5t-65.5 -32.5t-77.5 -13q-50 0 -91.5 19t-71.5 51.5t-46.5 76.5t-16.5 94v221q0 9 5.5 15t14.5 6t14.5 -6t5.5 -15v-220q0 -42 13 -79.5t37.5 -65.5t59 -44t76.5 -16q41 0 80.5 17t70 45.5t49 66t18.5 78.5v218q0 9 5.5 15t14.5 6
t14.5 -6t5.5 -15v-451q0 -11 -11 -11q-15 0 -22 17t-7 55v56zM388 533q-6 -6 -15.5 -5t-15.5 6l-82 77l-80 -77q-6 -5 -15 -6.5t-16 5.5q-8 8 -7 17.5t6 14.5l94 83q3 2 7 5t11 3q6 0 10 -2.5t8 -5.5l95 -83q6 -5 6 -15.5t-6 -16.5z" />
    <glyph glyph-name="Zcaron" unicode="&#x17d;" horiz-adv-x="552" 
d="M396 786q6 -6 6 -16.5t-6 -15.5l-95 -83q-4 -3 -8 -5.5t-10 -2.5q-7 0 -11 3t-7 5l-94 83q-5 5 -6 14.5t7 17.5q7 7 16 5.5t15 -6.5l80 -77l82 77q6 5 15.5 6t15.5 -5zM525 611q0 -8 -5 -14l-438 -564l423 7q8 0 14 -6t6 -14t-6 -14t-14 -6h-448q-10 0 -17.5 2t-9.5 12
q-2 7 0.5 13.5t6.5 11.5l434 557l-422 -5q-8 0 -14 6t-6 14t6 14t14 6h456q8 0 14 -6t6 -14z" />
    <glyph glyph-name="cent" unicode="&#xa2;" horiz-adv-x="433" 
d="M386 395q-26 24 -60.5 37.5t-72.5 13.5q-42 0 -78.5 -16t-63.5 -44t-42.5 -65.5t-15.5 -79.5t15.5 -79.5t42.5 -65.5t63.5 -44t78.5 -16q37 0 73 13.5t62 39.5q6 6 15 6q7 0 15 -6q6 -8 6 -15q0 -9 -6 -15q-22 -19 -58 -37t-86 -22v-94q0 -8 -6 -14t-14 -6t-14 6t-6 14
v94q-47 3 -87.5 23.5t-70.5 52.5t-47.5 74.5t-17.5 90.5t17.5 90t47.5 74.5t70.5 52.5t87.5 24v94q0 8 6 14t14 6t14 -6t6 -14v-94q38 -2 76.5 -16t65.5 -41q6 -8 6 -15q0 -9 -6 -15q-8 -6 -15 -6q-9 0 -15 6z" />
    <glyph glyph-name="atilde" unicode="&#xe3;" horiz-adv-x="552" 
d="M472 127q-9 -24 -29.5 -47t-48.5 -41t-62.5 -29t-71.5 -11q-50 0 -92.5 19t-73.5 52t-48.5 77t-17.5 94t17.5 94t48.5 77t73.5 52t92.5 19q41 0 76.5 -13t63.5 -32.5t46.5 -41.5t25.5 -41v55q0 38 7 55t22 17q11 0 11 -11v-460q0 -11 -11 -11q-15 0 -22 17t-7 55v55z
M71 241q0 -42 13.5 -79.5t38.5 -65.5t60 -44t77 -16t80.5 16t67 44t45.5 65.5t17 79.5q0 41 -17.5 78.5t-46.5 65.5t-67 44.5t-79 16.5q-42 0 -77 -16t-60 -44t-38.5 -65.5t-13.5 -79.5zM406 655q0 8 6 14t14 6t14 -6t6 -14q0 -23 -9 -46t-24 -42t-35 -30.5t-43 -11.5
q-17 0 -29 5.5t-21 13.5t-15.5 18t-12.5 19q-6 8 -12 18t-15 18.5t-20.5 14.5t-27.5 6q-15 0 -26 -9t-18.5 -23t-11.5 -30.5t-4 -31.5q0 -8 -6 -14t-14 -6t-14 6t-6 14q0 23 7 46.5t20 42t31.5 30.5t41.5 12q21 0 36.5 -5.5t26.5 -14.5t18.5 -20t14.5 -21q4 -7 9 -15.5
t12 -16.5t15.5 -13.5t20.5 -5.5q16 0 29 8.5t22 22t14.5 30t5.5 31.5z" />
    <glyph glyph-name="Oslash" unicode="&#xd8;" horiz-adv-x="680" 
d="M474 651q8 -3 11 -10.5t1 -15.5l-10 -26q40 -19 73 -48t56.5 -66t36.5 -80t13 -90q0 -65 -25 -122.5t-67.5 -100.5t-100 -67.5t-122.5 -24.5q-52 0 -97 15l-13 -33q-3 -8 -10.5 -10.5t-15.5 0.5t-10.5 10.5t-0.5 15.5l12 31q-40 19 -73 48.5t-57 66.5t-37 80.5t-13 90.5
q0 65 24.5 122.5t67.5 100t100.5 67.5t122.5 25q26 0 50.5 -4t47.5 -12l10 26q3 8 10.5 11t15.5 0zM65 315q0 -41 11.5 -78.5t31.5 -70t48.5 -58t63.5 -41.5l203 510q-20 6 -40.5 9.5t-42.5 3.5q-57 0 -107 -21.5t-87.5 -59t-59 -87.5t-21.5 -107zM615 315q0 40 -11.5 77.5
t-31.5 69.5t-48.5 57.5t-62.5 42.5l-203 -510q39 -12 82 -12q57 0 107 21.5t87.5 59t59 87.5t21.5 107z" />
    <glyph glyph-name="e" unicode="e" 
d="M270 0q-50 0 -94 19t-77 51.5t-52 76.5t-19 94q0 56 20 101t54.5 76.5t80 48.5t95.5 17t93 -18.5t74.5 -51t49.5 -76.5t18 -95q0 -8 -6 -14t-17 -6h-420q3 -39 20 -73t43.5 -59t61.5 -39.5t75 -14.5q37 0 73 13.5t62 39.5q6 6 15 6t15 -6q5 -6 6 -14.5t-6 -15.5
q-12 -10 -28.5 -20.5t-37 -19.5t-45.5 -14.5t-54 -5.5zM278 447q-40 0 -76 -14.5t-64 -39.5t-45.5 -59t-21.5 -73h401q-3 39 -18.5 73t-41 59t-60 39.5t-74.5 14.5z" />
    <glyph glyph-name="germandbls" unicode="&#xdf;" horiz-adv-x="384" 
d="M133 350q0 8 5.5 14t13.5 6h2h20q23 0 43 9t35 24t23.5 35t8.5 43t-8.5 43t-23.5 35t-35 23.5t-43 8.5h-89v-571q0 -8 -6 -14t-14 -6t-14 6t-6 14v591q0 4 -1 7.5t0 6.5t5 4.5t14 1.5h111q31 0 58.5 -12t47.5 -32t32 -47.5t12 -58.5q0 -41 -19.5 -74.5t-51.5 -53.5
q48 -22 77.5 -67t29.5 -101q0 -39 -14.5 -72.5t-40 -58.5t-59 -39.5t-72.5 -14.5h-19h-3q-19 0 -19 19q0 8 5.5 14t13.5 6h2h20q30 0 57 11.5t46.5 31.5t31 46.5t11.5 56.5t-11.5 56.5t-31 46.5t-46.5 31.5t-57 11.5h-22q-19 0 -19 19z" />
    <glyph glyph-name="Euro" unicode="&#x20ac;" horiz-adv-x="679" 
d="M394 368q0 -8 -6 -14t-14 -6h-240q-2 -8 -2 -17v-17v-13.5t1 -12.5h241q8 0 14 -6t6 -14t-6 -14t-14 -6h-234q11 -45 36 -83.5t60 -66t79 -43.5t92 -16q63 0 116.5 25.5t91.5 70.5q5 6 9 7.5t8 1.5q8 0 14 -6t6 -13q0 -9 -8 -17q-26 -28 -51.5 -48.5t-53 -34t-60 -20
t-72.5 -6.5q-57 0 -108 19t-91.5 52t-69 78.5t-39.5 99.5h-63q-8 0 -14 6t-6 14t6 14t14 6h57q-1 6 -1 12.5v13.5q0 8 0.5 17t1.5 17h-58q-8 0 -14 6t-6 14t6 14t14 6h64q13 52 41.5 96t69 76t90.5 50.5t106 18.5q40 0 72.5 -7t60.5 -21t53.5 -34.5t52.5 -48.5q6 -6 6 -14
t-6 -14t-14 -6q-9 0 -17 9q-45 49 -95 72.5t-113 23.5q-48 0 -90.5 -15t-77 -42t-60 -64t-37.5 -80h232q8 0 14 -6t6 -14z" />
    <glyph glyph-name="perthousand" unicode="&#x2030;" horiz-adv-x="874" 
d="M28 500q0 28 10.5 53t29 44t43 29.5t53.5 10.5q28 0 53 -10.5t44 -29.5t29.5 -44t10.5 -53q0 -29 -10.5 -53.5t-29.5 -43t-44 -29t-53 -10.5q-29 0 -53.5 10.5t-43 29t-29 43t-10.5 53.5zM420 635q8 -3 11 -10.5t1 -15.5l-238 -597q-3 -8 -10.5 -10.5t-15.5 0.5
t-10.5 10.5t-0.5 15.5l237 596q3 8 10.5 11t15.5 0zM68 500q0 -41 27.5 -68.5t68.5 -27.5t69 27.5t28 68.5t-28 69t-69 28t-68.5 -28t-27.5 -69zM288 136q0 28 10.5 53t29 44t43 29.5t53.5 10.5q28 0 53 -10.5t44 -29.5t29.5 -44t10.5 -53q0 -29 -10.5 -53.5t-29.5 -43
t-44 -29t-53 -10.5q-29 0 -53.5 10.5t-43 29t-29 43t-10.5 53.5zM328 136q0 -41 27.5 -68.5t68.5 -27.5t69 27.5t28 68.5t-28 69t-69 28t-68.5 -28t-27.5 -69zM588 136q0 28 10.5 53t29 44t43 29.5t53.5 10.5q28 0 53 -10.5t44 -29.5t29.5 -44t10.5 -53q0 -29 -10.5 -53.5
t-29.5 -43t-44 -29t-53 -10.5q-29 0 -53.5 10.5t-43 29t-29 43t-10.5 53.5zM628 136q0 -41 27.5 -68.5t68.5 -27.5t69 27.5t28 68.5t-28 69t-69 28t-68.5 -28t-27.5 -69z" />
    <glyph glyph-name="dollar" unicode="$" horiz-adv-x="439" 
d="M220 689q8 0 14 -6t6 -14v-41q30 -3 54.5 -12.5t44 -23.5t35 -32t27.5 -37q5 -7 2.5 -14t-9.5 -12t-14 -3t-12 9q-30 44 -63.5 64.5t-84.5 21.5q-26 0 -51.5 -8t-45.5 -23t-33 -36.5t-13 -46.5q0 -27 14.5 -46.5t36 -34.5t46.5 -25.5t47 -17.5q34 -12 69 -27.5t64.5 -37
t48 -50.5t19.5 -66q1 -33 -12.5 -62.5t-37.5 -52t-58 -37t-74 -17.5v-62q0 -8 -6 -14t-14 -6t-14 6t-6 14v61q-33 2 -62 11.5t-52 24t-39.5 33t-24.5 38.5q-5 11 -5.5 19t7.5 13q7 5 15.5 3t11.5 -10q7 -18 21.5 -34.5t35.5 -29.5t48 -21.5t59 -8.5q31 0 61 9t54 26t38.5 42
t13.5 55q-1 27 -16.5 49.5t-39 40t-51.5 30.5t-54 21q-38 12 -71 26.5t-58.5 33.5t-40 44.5t-14.5 59.5q0 31 13.5 58t36.5 47t52 32.5t61 15.5v41q0 8 6 14t14 6z" />
    <glyph glyph-name="yen" unicode="&#xa5;" horiz-adv-x="591" 
d="M482 226q0 -8 -6 -14t-14 -6h-146v-186q0 -8 -6 -14t-14 -6t-14 6t-6 14v186h-152q-8 0 -14 6t-6 14t6 14t14 6h152v80h-152q-8 0 -14 6t-6 14t6 14t14 6h128l-231 231q-6 6 -6 14.5t6 13.5q14 14 28 0l247 -246l247 246q14 14 28 0q6 -5 6 -13.5t-6 -14.5l-231 -231h122
q8 0 14 -6t6 -14t-6 -14t-14 -6h-146v-80h146q8 0 14 -6t6 -14z" />
    <glyph glyph-name="Ntilde" unicode="&#xd1;" horiz-adv-x="478" 
d="M589 20q0 -8 -6 -14t-14 -6t-12 3t-8 8l-471 545v-536q0 -8 -6 -14t-14 -6t-14 6t-6 14v592q0 4 -1 7.5t-0.5 6t4.5 4t15 1.5q6 0 10.5 -4.5l11.5 -11.5l4.5 -4.5t20 -21.5t45.5 -51.5t82 -95t130 -152t189 -221.5v543q0 4 -1.5 7.5t-1 6t5 4t15.5 1.5q16 0 19 -5.5
t3 -13.5v-592zM384 794q0 8 6 14t14 6t14 -6t6 -14q0 -23 -9 -46t-24 -42t-35 -30.5t-43 -11.5q-17 0 -29 5.5t-21 13.5t-15.5 18t-12.5 19q-6 8 -12 18t-15 18.5t-20.5 14.5t-27.5 6q-15 0 -26 -9t-18.5 -23t-11.5 -30.5t-4 -31.5q0 -8 -6 -14t-14 -6t-14 6t-6 14
q0 23 7 46.5t20 42t31.5 30.5t41.5 12q21 0 36.5 -5.5t26.5 -14.5t18.5 -20t14.5 -21q4 -7 9 -15.5t12 -16.5t15.5 -13.5t20.5 -5.5q16 0 29 8.5t22 22t14.5 30t5.5 31.5z" />
    <glyph glyph-name="Agrave" unicode="&#xc0;" horiz-adv-x="504" 
d="M247 631q6 0 12.5 -3t9.5 -10l231 -591q3 -8 -0.5 -15.5t-11.5 -10.5t-15.5 0.5t-10.5 11.5l-62 157h-300l-61 -157q-3 -8 -10.5 -11.5t-15.5 -0.5t-11.5 10.5t-0.5 15.5l228 584q1 4 0 7.5t0 6.5t4.5 4.5t13.5 1.5zM116 210h269l-135 343zM173 743q10 11 22 9.5t18 -7.5
q18 -20 27 -33t12 -21.5t1.5 -13.5t-4.5 -9q-3 -3 -7.5 -4.5t-12 1.5t-20.5 11.5t-34 25.5q-7 6 -10 17.5t8 23.5z" />
    <glyph glyph-name="Acircumflex" unicode="&#xc2;" horiz-adv-x="507" 
d="M251 631q6 0 12.5 -3t9.5 -10l231 -591q3 -8 -0.5 -15.5t-11.5 -10.5t-15.5 0.5t-10.5 11.5l-62 157h-300l-61 -157q-3 -8 -10.5 -11.5t-15.5 -0.5t-11.5 10.5t-0.5 15.5l228 584q1 4 0 7.5t0 6.5t4.5 4.5t13.5 1.5zM120 210h269l-135 343zM366 672q-6 -6 -15.5 -5
t-15.5 6l-82 77l-80 -77q-6 -5 -15 -6.5t-16 5.5q-8 8 -7 17.5t6 14.5l94 83q3 2 7 5t11 3q6 0 10 -2.5t8 -5.5l95 -83q6 -5 6 -15.5t-6 -16.5z" />
    <glyph glyph-name="Atilde" unicode="&#xc3;" horiz-adv-x="508" 
d="M251 631q6 0 12.5 -3t9.5 -10l231 -591q3 -8 -0.5 -15.5t-11.5 -10.5t-15.5 0.5t-10.5 11.5l-62 157h-300l-61 -157q-3 -8 -10.5 -11.5t-15.5 -0.5t-11.5 10.5t-0.5 15.5l228 584q1 4 0 7.5t0 6.5t4.5 4.5t13.5 1.5zM120 210h269l-135 343zM396 795q0 8 6 14t14 6t14 -6
t6 -14q0 -23 -9 -46t-24 -42t-35 -30.5t-43 -11.5q-17 0 -29 5.5t-21 13.5t-15.5 18t-12.5 19q-6 8 -12 18t-15 18.5t-20.5 14.5t-27.5 6q-15 0 -26 -9t-18.5 -23t-11.5 -30.5t-4 -31.5q0 -8 -6 -14t-14 -6t-14 6t-6 14q0 23 7 46.5t20 42t31.5 30.5t41.5 12q21 0 36.5 -5.5
t26.5 -14.5t18.5 -20t14.5 -21q4 -7 9 -15.5t12 -16.5t15.5 -13.5t20.5 -5.5q16 0 29 8.5t22 22t14.5 30t5.5 31.5z" />
    <glyph glyph-name="Adieresis" unicode="&#xc4;" horiz-adv-x="505" 
d="M249 631q6 0 12.5 -3t9.5 -10l231 -591q3 -8 -0.5 -15.5t-11.5 -10.5t-15.5 0.5t-10.5 11.5l-62 157h-300l-61 -157q-3 -8 -10.5 -11.5t-15.5 -0.5t-11.5 10.5t-0.5 15.5l228 584q1 4 0 7.5t0 6.5t4.5 4.5t13.5 1.5zM118 210h269l-135 343zM151 723q0 12 8 20.5t20 8.5
t20.5 -8.5t8.5 -20.5t-8.5 -20t-20.5 -8t-20 8t-8 20zM291 723q0 12 8 20.5t20 8.5t20.5 -8.5t8.5 -20.5t-8.5 -20t-20.5 -8t-20 8t-8 20z" />
    <glyph glyph-name="AE" unicode="&#xc6;" horiz-adv-x="697" 
d="M690 20q0 -8 -6 -14t-14 -6h-395q-8 0 -13 6t-5 14v150h-150l-61 -157q-3 -8 -10.5 -11.5t-15.5 -0.5t-11.5 10.5t-0.5 15.5l228 584q1 4 0 7.5t0 6.5t4.5 4.5t13.5 1.5h416q8 0 14 -6t6 -14t-6 -14t-14 -6h-373v-285h308q8 0 14 -6t6 -14t-6 -14t-14 -6h-308v-226h373
q8 0 14 -6t6 -14zM257 553l-134 -343h134v343z" />
    <glyph glyph-name="Otilde" unicode="&#xd5;" horiz-adv-x="684" 
d="M24 315q0 65 24.5 122.5t67.5 100t100.5 67.5t122.5 25t122.5 -25t100 -67.5t67.5 -100t25 -122.5t-25 -122.5t-67.5 -100.5t-100 -67.5t-122.5 -24.5t-122.5 24.5t-100.5 67.5t-67.5 100.5t-24.5 122.5zM64 315q0 -57 21.5 -107t59 -87.5t87.5 -59t107 -21.5t107 21.5
t87.5 59t59 87.5t21.5 107t-21.5 107t-59 87.5t-87.5 59t-107 21.5t-107 -21.5t-87.5 -59t-59 -87.5t-21.5 -107zM487 795q0 8 6 14t14 6t14 -6t6 -14q0 -23 -9 -46t-24 -42t-35 -30.5t-43 -11.5q-17 0 -29 5.5t-21 13.5t-15.5 18t-12.5 19q-6 8 -12 18t-15 18.5t-20.5 14.5
t-27.5 6q-15 0 -26 -9t-18.5 -23t-11.5 -30.5t-4 -31.5q0 -8 -6 -14t-14 -6t-14 6t-6 14q0 23 7 46.5t20 42t31.5 30.5t41.5 12q21 0 36.5 -5.5t26.5 -14.5t18.5 -20t14.5 -21q4 -7 9 -15.5t12 -16.5t15.5 -13.5t20.5 -5.5q16 0 29 8.5t22 22t14.5 30t5.5 31.5z" />
    <glyph glyph-name="thorn" unicode="&#xfe;" 
d="M60 -133q-8 0 -14 6t-6 14v729q0 8 6 14t14 6t14 -6t6 -14v-261q7 19 25.5 41t46.5 41.5t63.5 32.5t76.5 13q50 0 92.5 -19t73.5 -52t48.5 -77t17.5 -94t-17.5 -94t-48.5 -77t-73.5 -52t-92.5 -19q-37 0 -71 10.5t-62.5 28.5t-49 41t-29.5 48v-240q0 -8 -6 -14t-14 -6z
M481 241q0 42 -13.5 79.5t-38.5 65.5t-60 44t-77 16q-41 0 -79 -16.5t-67 -44.5t-46.5 -65.5t-17.5 -78.5q0 -42 17 -79.5t45.5 -65.5t67 -44t80.5 -16t77 16t60 44t38.5 65.5t13.5 79.5z" />
    <glyph glyph-name="sterling" unicode="&#xa3;" horiz-adv-x="529" 
d="M446 501q-24 47 -56.5 68.5t-79.5 21.5q-31 0 -58.5 -12t-47.5 -32t-32 -47.5t-12 -58.5v-149l85 4h4q22 0 22 -22q0 -8 -6 -14t-16 -6h-3l-86 3v-176q8 12 17.5 19t19.5 10t19 3.5t15 0.5q32 0 54.5 -10.5t38.5 -33.5t32 -29.5t39 -6.5q11 0 23 4t22.5 12.5t17 20
t6.5 26.5q0 7 5.5 12t11.5 5q8 0 13 -5t5 -12q0 -26 -10.5 -44.5t-26 -30t-33.5 -17t-34 -5.5q-38 0 -59 10t-36 32q-14 21 -30 27.5t-39 6.5q-29 0 -50 -14t-21 -42v-2q-1 -8 -6.5 -13t-13.5 -5t-13.5 4.5t-6.5 12.5v240l-82 -3h-4q-8 0 -14 6t-6 14q0 10 6 16t14 6h4
l82 -4v149q0 39 15 74t40.5 60.5t60.5 40.5t74 15q55 0 98.5 -29.5t67.5 -75.5q4 -8 4 -18t-8 -15q-5 -3 -13 -2.5t-13 10.5z" />
    <glyph glyph-name="mu" unicode="&#xb5;" horiz-adv-x="542" 
d="M484 128q-7 -19 -26.5 -41t-48.5 -41.5t-65.5 -32.5t-77.5 -13q-61 0 -109 27t-77 73v-213q0 -8 -6 -14t-14 -6t-14 6t-6 14v575q0 9 5.5 15t14.5 6t14.5 -6t5.5 -15v-229q1 -41 15 -76.5t38 -62t58 -42t75 -15.5t80.5 17t70 45.5t49 66t18.5 78.5v218q0 9 5.5 15t14.5 6
t14.5 -6t5.5 -15v-451q0 -11 -11 -11q-15 0 -22 17t-7 55v56z" />
    <glyph glyph-name="mu" unicode="&#x3bc;" horiz-adv-x="542" 
d="M484 128q-7 -19 -26.5 -41t-48.5 -41.5t-65.5 -32.5t-77.5 -13q-61 0 -109 27t-77 73v-213q0 -8 -6 -14t-14 -6t-14 6t-6 14v575q0 9 5.5 15t14.5 6t14.5 -6t5.5 -15v-229q1 -41 15 -76.5t38 -62t58 -42t75 -15.5t80.5 17t70 45.5t49 66t18.5 78.5v218q0 9 5.5 15t14.5 6
t14.5 -6t5.5 -15v-451q0 -11 -11 -11q-15 0 -22 17t-7 55v56z" />
    <glyph glyph-name="Eth" unicode="&#xd0;" horiz-adv-x="473" 
d="M62 0q-8 0 -14 6t-6 14l3 319l-63 -3q-8 -1 -14 5.5t-6 14.5t6 14.5t14 5.5l63 -3l-3 238q0 4 -1 7.5t0 6.5t5 4.5t14 1.5h73q65 0 122.5 -25t100.5 -68t68 -100.5t25 -122.5t-25 -122.5t-68 -100.5t-100.5 -67.5t-122.5 -24.5h-71zM160 356q0 -8 -6 -14.5t-14 -5.5
l-61 3l3 -299h51q57 0 107 21.5t87.5 59t59.5 87.5t22 107t-22 107t-59.5 87.5t-87.5 59.5t-107 22h-51l-3 -218l61 3q8 1 14 -5.5t6 -14.5z" />
    <glyph glyph-name="cedilla" unicode="&#xb8;" horiz-adv-x="166" 
d="M61 18h41v-64q19 -6 31.5 -23t12.5 -39q0 -27 -18.5 -45.5t-46.5 -18.5q-27 0 -45.5 18.5t-18.5 45.5q0 9 6 15t15 6t14.5 -6t5.5 -15q2 -9 8 -16t15 -7q11 0 17 7t6 16q0 10 -6 16.5t-17 6.5q-8 0 -14 6.5t-6 17.5v79z" />
    <glyph glyph-name="ccedilla" unicode="&#xe7;" horiz-adv-x="462" 
d="M397 395q-26 24 -60.5 37.5t-72.5 13.5q-42 0 -78.5 -16t-63.5 -44t-42.5 -65.5t-15.5 -79.5t15.5 -79.5t42.5 -65.5t63.5 -44t78.5 -16q37 0 73 13.5t62 39.5q6 6 15 6q7 0 15 -6q6 -8 6 -15q0 -9 -6 -15q-12 -10 -28.5 -20.5t-37 -19.5t-45.5 -14.5t-54 -5.5
q-50 0 -94 19t-77 52t-52 77t-19 94t19 94t52 77t77 52t94 19q42 0 87 -13.5t76 -44.5q6 -8 6 -15q0 -9 -6 -15q-8 -6 -15 -6q-9 0 -15 6zM239 18h41v-64q19 -6 31.5 -23t12.5 -39q0 -27 -18.5 -45.5t-46.5 -18.5q-27 0 -45.5 18.5t-18.5 45.5q0 9 6 15t15 6t14.5 -6
t5.5 -15q2 -9 8 -16t15 -7q11 0 17 7t6 16q0 10 -6 16.5t-17 6.5q-8 0 -14 6.5t-6 17.5v79z" />
    <glyph glyph-name="bullet" unicode="&#x2022;" horiz-adv-x="180" 
d="M28 328q0 26 18 44t44 18t44 -18t18 -44t-18 -44t-44 -18t-44 18t-18 44z" />
    <glyph glyph-name="Ccedilla" unicode="&#xc7;" horiz-adv-x="611" 
d="M549 493q-45 49 -95 72.5t-113 23.5q-57 0 -107 -21.5t-87.5 -59t-59 -87.5t-21.5 -107t21.5 -107t59 -87.5t87.5 -59t107 -21.5q63 0 116.5 25.5t91.5 70.5q5 6 9 7.5t8 1.5q8 0 14 -6t6 -13q0 -9 -8 -17q-26 -28 -51.5 -48.5t-53 -34t-60 -20t-72.5 -6.5
q-65 0 -122.5 24.5t-100.5 67.5t-67.5 100.5t-24.5 122.5t24.5 122.5t67.5 100t100.5 67.5t122.5 25q40 0 72.5 -7t60.5 -21t53.5 -34.5t52.5 -48.5q6 -6 6 -14t-6 -14t-14 -6q-9 0 -17 9zM305 18h41v-64q19 -6 31.5 -23t12.5 -39q0 -27 -18.5 -45.5t-46.5 -18.5
q-27 0 -45.5 18.5t-18.5 45.5q0 9 6 15t15 6t14.5 -6t5.5 -15q2 -9 8 -16t15 -7q11 0 17 7t6 16q0 10 -6 16.5t-17 6.5q-8 0 -14 6.5t-6 17.5v79z" />
    <glyph glyph-name="f" unicode="f" horiz-adv-x="283" 
d="M275 618q0 -8 -6 -14t-14 -6q-51 -1 -77.5 -39t-27.5 -93v-54l85 4h4q22 0 22 -22q0 -8 -6 -14t-16 -6h-3l-86 3v-357q0 -8 -6 -14t-14 -6t-14 6t-6 14v357l-82 -3h-4q-8 0 -14 6t-6 14q0 10 6 16t14 6h4l82 -4v54q1 74 38.5 122.5t106.5 49.5q8 0 14 -6t6 -14z" />
    <glyph glyph-name="Aacute" unicode="&#xc1;" 
d="M264 631q6 0 12.5 -3t9.5 -10l231 -591q3 -8 -0.5 -15.5t-11.5 -10.5t-15.5 0.5t-10.5 11.5l-62 157h-300l-61 -157q-3 -8 -10.5 -11.5t-15.5 -0.5t-11.5 10.5t-0.5 15.5l228 584q1 4 0 7.5t0 6.5t4.5 4.5t13.5 1.5zM133 210h269l-135 343zM330 743q11 -12 8 -23.5
t-10 -17.5q-21 -17 -34 -25.5t-20.5 -11.5t-12 -1.5t-7.5 4.5q-3 4 -4.5 9t1.5 13.5t12 21.5t27 33q6 6 18 7.5t22 -9.5z" />
  </font>
</defs></svg>
